phttemp     175 C
phttime     210Sekunden
phtpwr      60%
soaktemp    210 C
soaktime    120Sekunden
soakpwr     80%
reflowtemp  240 C
reflowtime  70Sekunden
reflowpwr   100%
dwelltemp   240 C
dwelltime   40Sekunden
dwellpwr    80%
tempoffset  0 C
temptrace   Phasenmodus OFF
debug       OFF
trace       OFF
autoextend  OFF
mta         0
settings    0
manual      OFF
tempUnit    C
bLight      5
 
