G04 DipTrace 3.2.0.1*
G04 BottomMask.gbr*
%MOMM*%
G04 #@! TF.FileFunction,Soldermask,Bot*
G04 #@! TF.Part,Single*
%ADD21C,0.8*%
%ADD43C,0.45*%
%ADD86C,1.65*%
%ADD183C,1.2*%
%FSLAX35Y35*%
G04*
G71*
G90*
G75*
G01*
G04 BotMask*
%LPD*%
D21*
X2971000Y2311000D3*
X3252000Y1767000D3*
X2358000Y2471000D3*
X2433000D3*
X2508000D3*
X2433000Y2624000D3*
X2358000Y2575000D3*
X2508000Y2676000D3*
X1631000Y2325000D3*
X2167000Y1482000D3*
X1547000Y1572000D3*
X1533000Y2328000D3*
X2078000Y2728000D3*
X2341000Y2660000D3*
X2655000Y2419000D3*
X3296000Y2939000D3*
Y2879000D3*
Y2817000D3*
X1575000Y1471000D3*
X2957000Y2829000D3*
X2963000Y2688000D3*
X3064000Y2758000D3*
X3058000Y2615000D3*
X3069000Y2512000D3*
D86*
X3294000Y2095000D3*
D183*
X1691000Y3052000D3*
X3129000Y2684000D3*
X3220000Y2551000D3*
X2959000Y2952000D3*
X3076000Y2950000D3*
X3140000Y2848000D3*
X3263000Y2678000D3*
X1461000Y1407000D3*
X1713000Y2509000D3*
X1630000Y2410000D3*
D43*
X1052977Y2624000D3*
X1296227Y2479000D3*
M02*
