G04 DipTrace 3.2.0.1*
G04 Top.gbr*
%MOMM*%
G04 #@! TF.FileFunction,Copper,L1,Top*
G04 #@! TF.Part,Single*
%AMOUTLINE0*
4,1,4,
-0.34,0.0,
0.0,0.34,
0.34,0.0,
0.0,-0.34,
-0.34,0.0,
0*%
%AMOUTLINE3*
4,1,5,
-0.18,-0.105,
-0.18,-0.075,
0.0,0.105,
0.18,0.105,
0.18,-0.105,
-0.18,-0.105,
0*%
%AMOUTLINE6*
4,1,5,
-0.18,0.105,
-0.18,0.075,
0.0,-0.105,
0.18,-0.105,
0.18,0.105,
-0.18,0.105,
0*%
%AMOUTLINE9*
4,1,5,
0.18,0.105,
0.18,0.075,
0.0,-0.105,
-0.18,-0.105,
-0.18,0.105,
0.18,0.105,
0*%
%AMOUTLINE12*
4,1,5,
0.18,-0.105,
0.18,-0.075,
0.0,0.105,
-0.18,0.105,
-0.18,-0.105,
0.18,-0.105,
0*%
%AMOUTLINE15*
4,1,5,
-0.12,-0.195,
-0.12,0.025,
0.06,0.205,
0.13,0.205,
0.13,-0.195,
-0.12,-0.195,
0*%
%AMOUTLINE18*
4,1,5,
-0.12,0.235,
-0.12,0.015,
0.06,-0.165,
0.13,-0.235,
0.13,0.235,
-0.12,0.235,
0*%
%AMOUTLINE21*
4,1,5,
0.12,0.195,
0.12,-0.025,
-0.06,-0.205,
-0.13,-0.205,
-0.13,0.195,
0.12,0.195,
0*%
%AMOUTLINE24*
4,1,5,
0.12,-0.195,
0.12,0.025,
-0.06,0.205,
-0.13,0.205,
-0.13,-0.195,
0.12,-0.195,
0*%
%AMOUTLINE27*
4,1,4,
-0.03537,-0.45963,
-0.45963,-0.03537,
0.03537,0.45963,
0.45963,0.03537,
-0.03537,-0.45963,
0*%
%AMOUTLINE30*
4,1,4,
-0.01767,-0.68943,
-0.68943,-0.01767,
0.01767,0.68943,
0.68943,0.01767,
-0.01767,-0.68943,
0*%
%AMOUTLINE33*
4,1,4,
-0.68943,0.01767,
-0.01767,0.68943,
0.68943,-0.01767,
0.01767,-0.68943,
-0.68943,0.01767,
0*%
%AMOUTLINE36*
4,1,4,
-0.45963,0.03537,
-0.03537,0.45963,
0.45963,-0.03537,
0.03537,-0.45963,
-0.45963,0.03537,
0*%
%AMOUTLINE39*
4,1,4,
-0.3182,0.10607,
-0.10607,0.3182,
0.3182,-0.10607,
0.10607,-0.3182,
-0.3182,0.10607,
0*%
%AMOUTLINE41*
4,1,4,
-0.10607,-0.3182,
-0.3182,-0.10607,
0.10607,0.3182,
0.3182,0.10607,
-0.10607,-0.3182,
0*%
%AMOUTLINE43*
4,1,4,
0.0,-2.43953,
-2.43953,0.0,
0.0,2.43953,
2.43953,0.0,
0.0,-2.43953,
0*%
G04 #@! TA.AperFunction,Conductor*
%ADD13C,0.128*%
%ADD14C,0.35*%
%ADD15C,0.3*%
%ADD16C,0.5*%
G04 #@! TA.AperFunction,Nonconductor*
%ADD17C,1.0*%
G04 #@! TA.AperFunction,Conductor*
%ADD18C,0.15*%
%ADD19C,0.2*%
%ADD20C,0.4*%
%ADD21C,0.8*%
G04 #@! TA.AperFunction,CopperBalancing*
%ADD22C,0.1*%
%ADD25C,1.0*%
%ADD26R,0.95X1.0*%
%ADD27R,2.0X0.8*%
%ADD28R,0.9X0.7*%
%ADD29R,0.7X0.9*%
%ADD30R,1.1X1.0*%
%ADD31R,1.0X1.6*%
%ADD32R,0.45X0.3*%
%ADD36R,0.7X0.6*%
%ADD37R,1.0X0.95*%
%ADD38R,2.7X1.6*%
%ADD39R,1.1X2.0*%
%ADD40R,1.1X0.8*%
G04 #@! TA.AperFunction,ComponentPad*
%ADD43C,0.45*%
%ADD69R,0.6X0.7*%
%ADD70R,0.75X0.3*%
%ADD71R,1.45X2.6*%
%ADD72R,2.0X1.1*%
%ADD73R,0.8X1.1*%
%ADD74R,0.85X0.35*%
%ADD75R,0.85X0.4*%
%ADD77R,2.0X0.6*%
%ADD79R,0.85X0.5*%
%ADD80R,1.3X1.5*%
G04 #@! TA.AperFunction,ViaPad*
%ADD82C,0.6*%
%ADD83C,0.353*%
%ADD84C,1.45*%
%ADD186OUTLINE0*%
%ADD189OUTLINE3*%
%ADD192OUTLINE6*%
%ADD195OUTLINE9*%
%ADD198OUTLINE12*%
%ADD201OUTLINE15*%
%ADD204OUTLINE18*%
%ADD207OUTLINE21*%
%ADD210OUTLINE24*%
%ADD213OUTLINE27*%
%ADD216OUTLINE30*%
%ADD219OUTLINE33*%
%ADD222OUTLINE36*%
%ADD225OUTLINE39*%
%ADD227OUTLINE41*%
%ADD229OUTLINE43*%
%FSLAX35Y35*%
G04*
G71*
G90*
G75*
G01*
G04 Top*
%LPD*%
X1052973Y2624000D2*
D13*
X1232000D1*
X1327000Y2529000D1*
X1465000D1*
Y2479000D2*
X1296223D1*
X1513000Y2769000D2*
X1489000D1*
Y2815000D1*
X1544000Y2870000D1*
X2042000Y3129000D2*
Y3019000D1*
X2831000Y2325000D2*
D14*
X2957000D1*
X2971000Y2311000D1*
X2511000Y2187000D2*
D15*
Y2072000D1*
Y1957000D1*
Y2302000D2*
Y2187000D1*
X3326000Y3354000D2*
D13*
Y3415000D1*
X1806000Y1446000D2*
X1809000D1*
D16*
Y1525000D1*
D13*
X1829000Y1545000D1*
Y1622807D1*
X1858170Y1651977D1*
X2123467Y2400533D2*
X2080320D1*
D16*
X2032393Y2352607D1*
X1943023Y2242023D2*
D13*
Y2231803D1*
X2511000Y1842000D2*
D15*
Y1957000D1*
X3200000Y1797000D2*
D13*
X3151000D1*
X3110000Y1756000D1*
X3200000Y1737000D2*
X3129000D1*
X3110000Y1756000D1*
X3252000Y1767000D2*
X3121000D1*
X3110000Y1756000D1*
X2225393Y1822393D2*
Y1840607D1*
D15*
X2298533Y1767467D1*
D13*
X2309467D1*
X2221000Y1514000D2*
X2349000D1*
X2350000Y1515000D1*
X2220000Y1454000D2*
X2289000D1*
X2350000Y1515000D1*
X2167000Y1482000D2*
X2317000D1*
X2350000Y1515000D1*
X2167000Y1482000D2*
X2189000D1*
X2221000Y1514000D1*
X1689000Y1441000D2*
X1801000D1*
X1806000Y1446000D1*
X1685000Y1352000D2*
Y1437000D1*
X1689000Y1441000D1*
X1745000Y1352000D2*
Y1385000D1*
X1806000Y1446000D1*
X1805000Y1352000D2*
Y1447000D1*
X1865000Y1352000D2*
Y1387000D1*
X1806000Y1446000D1*
X1458000Y2024000D2*
X1431000D1*
X1391000Y1984000D1*
X1465000Y1965000D2*
X1410000D1*
X1391000Y1984000D1*
X1900597Y1941890D2*
Y1947597D1*
X1901000Y1948000D1*
X2350000Y1517000D2*
D15*
X2302000Y1565000D1*
Y1760000D1*
D13*
X2309467Y1767467D1*
X2421000Y2268000D2*
X2477000D1*
X2511000Y2302000D1*
X2421000Y2208000D2*
X2490000D1*
X2511000Y2187000D1*
X2421000Y2148000D2*
X2472000D1*
X2511000Y2187000D1*
X2421000Y2088000D2*
X2495000D1*
X2511000Y2072000D1*
X2421000Y2030000D2*
X2469000D1*
X2511000Y2072000D1*
X1795000Y2771000D2*
Y2746000D1*
X1465000Y2429000D2*
X1404000D1*
X1387000Y2412000D1*
X2331000Y2090000D2*
X2363000D1*
X2421000Y2148000D1*
X2209000Y2449000D2*
X2171933D1*
X2123467Y2400533D1*
X2120000Y2537000D2*
Y2400533D1*
X2123467D1*
X2162000Y2580000D2*
Y2439067D1*
X2123467Y2400533D1*
X1900597Y1949403D2*
X1841000Y2009000D1*
X1900597Y1941890D2*
Y2055403D1*
X1900000Y2056000D1*
X1900597Y1941890D2*
Y1942597D1*
X1960000Y2002000D1*
X2020000Y1945000D2*
X1903707D1*
X1962000Y1893000D2*
X1949487D1*
X1900597Y1941890D1*
X1902000Y1850000D2*
Y1940487D1*
X1840000Y1903000D2*
X1861707D1*
X1900597Y1941890D1*
X1784000Y1954000D2*
X1888487D1*
X1900597Y1941890D1*
X1943023Y2231803D2*
Y2246023D1*
D15*
X1995000Y2298000D1*
D13*
X1993000D1*
D15*
X2047607Y2352607D1*
X2032393D1*
X1704000Y3769000D2*
D13*
X1767000D1*
X1641000D2*
X1578000D1*
X1641000D2*
X1704000D1*
Y3686000D1*
X1674000Y3656000D1*
D17*
X1984000D1*
X2294000D1*
X2604000D1*
X1984000D2*
D13*
Y3736000D1*
X2016000Y3768000D1*
X1890000D2*
X1953000D1*
X2016000D1*
X2079000D1*
X2294000Y3656000D2*
Y3736000D1*
X2262000Y3768000D1*
X2199000D2*
X2262000D1*
X2325000D1*
X2388000D1*
X2604000Y3656000D2*
Y3736000D1*
X2572000Y3768000D1*
X2509000D2*
X2572000D1*
X2635000D2*
X2572000D1*
X2698000D2*
X2635000D1*
X1364000Y3190000D2*
D18*
Y3247000D1*
X1367000Y3250000D1*
X1461000Y3440000D2*
D19*
Y3520000D1*
X1566000Y3625000D1*
X1643000D1*
X1674000Y3656000D1*
X3326000Y3415000D2*
D13*
X3254000D1*
X3223000Y3384000D1*
X3326000Y3354000D2*
X3253000D1*
X3223000Y3384000D1*
X3192000Y3276000D2*
Y3353000D1*
X3223000Y3384000D1*
X3255000Y3276000D2*
Y3352000D1*
Y3276000D2*
X3192000D1*
X2713000Y3135000D2*
Y3055000D1*
X2715000Y3053000D1*
X2572000Y2782000D2*
X2636000D1*
X2637000Y2783000D1*
X3428713Y3557287D2*
X3432713D1*
X3475000Y3515000D1*
X3543000Y3295000D2*
X3385000D1*
X3326000Y3354000D1*
X1419000Y3538000D2*
X1461000D1*
D19*
Y3520000D1*
X3461000Y2881000D2*
D13*
X3519000D1*
X3544000Y2906000D1*
D16*
Y2788000D1*
X3461000Y2821000D2*
D13*
X3511000D1*
X3544000Y2788000D1*
X3461000Y2761000D2*
Y2821000D1*
Y2941000D2*
Y2881000D1*
Y2821000D1*
Y2761000D2*
X3517000D1*
X3544000Y2788000D1*
X3461000Y2941000D2*
X3509000D1*
X3544000Y2906000D1*
X1580000Y2776000D2*
X1520000D1*
X1513000Y2769000D1*
X1714000Y3242000D2*
X1796000D1*
X1797000Y3243000D1*
X1791000Y3170500D2*
Y3237000D1*
X1797000Y3243000D1*
X1802000Y2900000D2*
Y2778000D1*
X1795000Y2771000D1*
X2461000Y2952000D2*
X2394000D1*
X2367000Y2925000D1*
X2043000Y3232000D2*
D20*
Y3130000D1*
D13*
X2042000Y3129000D1*
Y3076000D1*
X2040000Y3074000D1*
X1490000Y2746000D2*
X1513000Y2769000D1*
Y2743000D1*
X1534000Y2722000D1*
X1659000D1*
X1762000D1*
X1811000Y2771000D1*
X1795000D1*
X1659000Y2772000D2*
Y2722000D1*
X1429000Y3186500D2*
D18*
Y3248000D1*
X1461000Y3280000D1*
D19*
Y3225000D1*
X1485000Y3201000D1*
Y3057000D1*
X1508000Y3034000D1*
X1541000D1*
X1590000Y2985000D1*
X1465000Y2679000D2*
D13*
X1406000D1*
Y2769000D1*
X1413000D1*
X1465000Y2579000D2*
D15*
X1383000D1*
X1355000Y2607000D1*
Y2841000D1*
X1384000Y2870000D1*
X1428000Y2294000D2*
D13*
Y2261000D1*
X1391000Y2224000D1*
X1368000Y2300000D2*
Y2247000D1*
X1391000Y2224000D1*
X1424000Y3015000D2*
X1366000D1*
D15*
Y2888000D1*
D13*
X1384000Y2870000D1*
X1364000Y3100000D2*
Y3068000D1*
Y3015000D1*
X1366000D1*
X1429000Y3100000D2*
X1431000Y3102000D1*
Y3068000D1*
X1364000D1*
X2049090Y2125737D2*
Y2122087D1*
X2050547D1*
X2049090Y2125737D2*
X2083000Y2159647D1*
Y2189000D1*
X2308000Y2414000D1*
Y2524000D1*
X2577000D1*
X2626000Y2475000D1*
X2831000D1*
X2984000D1*
X3002000Y2493000D1*
X3050000D1*
X3069000Y2512000D1*
X2831000Y2775000D2*
D14*
X2745000D1*
X2737000Y2783000D1*
X1681393Y1828753D2*
D13*
Y1823393D1*
X1661000Y1803000D1*
Y1760000D1*
X1633000Y1732000D1*
X1391000Y1744000D2*
Y1728000D1*
X1547000Y1572000D1*
X3688000Y2163000D2*
D21*
Y2048000D1*
Y1933000D1*
Y1818000D1*
D13*
Y1803000D1*
D16*
X3491000Y1606000D1*
D13*
X3475000D1*
X2540000Y1515000D2*
D16*
Y1657000D1*
D13*
X2506000Y1691000D1*
X3475000Y1606000D2*
Y1566000D1*
D16*
X3399000Y1490000D1*
X2689000D1*
X2673000Y1506000D1*
X2549000D1*
D13*
X2540000Y1515000D1*
X3528000Y2163000D2*
D21*
Y2048000D1*
Y1933000D1*
Y1818000D1*
X3130000Y1627000D2*
D16*
X3294000D1*
D13*
X3315000Y1606000D1*
X3671000Y2354000D2*
D16*
Y2345000D1*
X3617000Y2291000D1*
X3528000Y2163000D2*
Y2290000D1*
X3616000D1*
X3617000Y2291000D1*
X3315000Y1606000D2*
Y1675000D1*
X3456000Y1816000D1*
X3526000D1*
X3528000Y1818000D1*
X3222000Y3583993D2*
X3284007D1*
X3427000Y3441000D1*
X3550000D1*
X3650000Y3341000D1*
Y3224000D1*
X2831000Y3025000D2*
D13*
X2928000D1*
X2963000Y3060000D1*
Y3314000D1*
X3033000Y3384000D1*
D16*
X3012000D1*
Y3518987D1*
X2831000Y2275000D2*
D19*
X2698000D1*
X2671000Y2302000D1*
X3012000Y3649000D2*
D13*
X2954000D1*
X2909000Y3604000D1*
Y3094000D1*
X2891000Y3076000D1*
X2832000D1*
X2831000Y3075000D1*
X3358000Y3628000D2*
Y3630000D1*
X3332000Y3656000D1*
X3019000D1*
X3012000Y3649000D1*
X2940000Y1627000D2*
Y1746000D1*
X2950000Y1756000D1*
X2831000Y2125000D2*
D15*
X2923000D1*
X2985000Y2063000D1*
Y1791000D1*
D13*
X2950000Y1756000D1*
X2831000Y2025000D2*
D15*
X2911000D1*
X2929000Y2007000D1*
Y1949000D1*
X2779000Y1838000D1*
X2675000D1*
D13*
X2671000Y1842000D1*
D16*
X2700000D1*
Y1695000D1*
D13*
X2696000Y1691000D1*
X2831000Y2925000D2*
D14*
X2747000D1*
X2715000Y2893000D1*
X2831000Y2975000D2*
D19*
X2945000D1*
X3021000Y3051000D1*
X3507000D1*
X3528000Y3030000D1*
X3628000D2*
Y3050000D1*
X3543000Y3135000D1*
X2831000Y2075000D2*
X2674000D1*
X2671000Y2072000D1*
X2831000Y1975000D2*
X2689000D1*
X2671000Y1957000D1*
X2831000Y2175000D2*
X2683000D1*
X2671000Y2187000D1*
X1765000Y2629000D2*
D13*
X1716000D1*
X1708000Y2621000D1*
Y2367000D1*
X1680000Y2339000D1*
X1645000D1*
X1631000Y2325000D1*
X1822790Y2196473D2*
X1821527D1*
X1768000Y2250000D1*
X1765000Y2429000D2*
Y2383000D1*
X1646000Y2264000D1*
X1516000D1*
Y1653000D1*
X1614000D1*
X1717773D1*
X1787460Y1722687D1*
X1575000Y1471000D2*
Y1500000D1*
X1614000Y1539000D1*
Y1653000D1*
X2049067Y1758067D2*
Y1747933D1*
X2069000Y1728000D1*
Y1673000D1*
X2075000Y1667000D1*
X2331000Y1888000D2*
Y1990000D1*
X1822817Y1687330D2*
X1835330D1*
X1689000Y1541000D1*
X1765000Y2479000D2*
X1807000D1*
X1828980Y2457020D1*
X1856500Y2429500D1*
X1655000Y2228000D1*
X1550000D1*
Y1682000D1*
X1676063D1*
X1752103Y1758043D1*
X1873000Y2500000D2*
X1871960D1*
X1828980Y2457020D1*
X2831000Y2525000D2*
X2628000D1*
X2581000Y2572000D1*
X2361000D1*
X2358000Y2575000D1*
X2119800Y2055027D2*
Y2057800D1*
X2146000Y2084000D1*
Y2207000D1*
X2373000Y2434000D1*
Y2456000D1*
X2358000Y2471000D1*
X2831000Y2525000D2*
Y2518000D1*
X2961000D1*
X3058000Y2615000D1*
X2508000Y2676000D2*
X2580000D1*
X2637000Y2619000D1*
X2825000D1*
X2831000Y2625000D1*
X2493000Y2456000D2*
X2508000Y2471000D1*
X2190510Y1984317D2*
Y1989510D1*
X2218000Y2017000D1*
Y2193000D1*
X2445000Y2420000D1*
X2457000D1*
X2508000Y2471000D1*
X2831000Y2625000D2*
X2996000D1*
Y2635000D1*
X3051000Y2690000D1*
Y2745000D1*
X3064000Y2758000D1*
X2831000Y2675000D2*
X2746000D1*
X2743000Y2672000D1*
X2655000Y2419000D2*
X2654000Y2420000D1*
X2609000D1*
X2572000Y2383000D1*
X2449000D1*
X2256000Y2190000D1*
Y1965000D1*
X2190487Y1899487D1*
X2831000Y2675000D2*
X2950000D1*
X2963000Y2688000D1*
X2836000Y2730000D2*
X2831000Y2725000D1*
Y2728000D1*
X2409000D1*
X2341000Y2660000D1*
X1978380Y2196447D2*
Y2199380D1*
X2027000Y2248000D1*
X2831000Y2725000D2*
X2887000D1*
X2945000Y2783000D1*
Y2817000D1*
X2957000Y2829000D1*
X2433000Y2624000D2*
X2579000D1*
X2627000Y2576000D1*
X2830000D1*
X2831000Y2575000D1*
X2155157Y2019670D2*
X2183000Y2047517D1*
Y2202000D1*
X2414000Y2433000D1*
Y2452000D1*
X2433000Y2471000D1*
X2831000Y2575000D2*
X2946000D1*
X2947000Y2574000D1*
X1646040Y1864107D2*
Y1863040D1*
X1618000Y1835000D1*
Y1812000D1*
X1606000Y1800000D1*
X1391000Y1624000D2*
X1462000Y1553000D1*
X1610657Y1984343D2*
X1608657D1*
X1577000Y2016000D1*
Y2149000D1*
X1604000Y2176000D1*
X1391000Y2104000D2*
X1399000D1*
X1475000Y2180000D1*
Y2270000D1*
X1533000Y2328000D1*
X1391000Y1864000D2*
X1439000D1*
X1466000Y1891000D1*
X1646013Y2019697D2*
Y2019987D1*
X1618000Y2048000D1*
Y2098000D1*
X1627000Y2107000D1*
X2013733Y2161093D2*
Y2163733D1*
X2270000Y2420000D1*
Y2557000D1*
X2099000Y2728000D1*
X2078000D1*
X1674000Y3376000D2*
D17*
X1984000D1*
X2294000D1*
X2604000D1*
X1711000Y3168000D2*
D13*
X1597000D1*
X1590000Y3175000D1*
X1712000Y3085000D2*
Y3167000D1*
X1711000Y3168000D1*
X2137500Y3139000D2*
D15*
X2207000D1*
Y3228000D1*
X2203000Y3232000D1*
Y3285000D1*
D20*
X2294000Y3376000D1*
X2380000Y3236000D2*
Y3290000D1*
D13*
X2294000Y3376000D1*
X2357000Y3213000D2*
X2380000Y3236000D1*
X1674000Y3376000D2*
D16*
X1627000D1*
X1590000Y3339000D1*
Y3175000D1*
X1966000Y1446000D2*
X1948000D1*
Y1526000D1*
D13*
X1929000Y1545000D1*
Y1666000D1*
X1943000Y1652000D1*
X2010327Y2513673D2*
Y2471967D1*
D16*
X1961680Y2423320D1*
X2154680Y1751680D2*
D13*
X2138000D1*
Y1717073D1*
X2154680Y1751680D2*
X2126160D1*
D15*
X2084420Y1793420D1*
X2138000Y1657587D2*
D13*
X2141260Y1654327D1*
X2196327D1*
X2154680Y1751680D2*
Y1719320D1*
D15*
X2195000Y1679000D1*
D13*
X2171657D1*
X2196327Y1654327D1*
X1961680Y2423320D2*
D15*
X1920000D1*
Y2402853D1*
Y2310577D1*
X1852443Y2243020D1*
X1858143Y2231830D1*
X1961680Y2423320D2*
D13*
Y2465027D1*
X2010327Y2513673D1*
X1920000Y2402853D2*
X1940467Y2423320D1*
X1961680D1*
X2010327Y2513673D2*
D16*
X1970000Y2554000D1*
Y2762000D1*
X1993000Y2785000D1*
X1765000Y2579000D2*
D19*
X1818000D1*
X1895000Y2656000D1*
Y2679000D1*
Y2771000D1*
X1765000Y2679000D2*
X1895000D1*
X2205000Y2809000D2*
D17*
X2450000D1*
X2570000Y2929000D1*
Y3188000D1*
X2613000Y3231000D1*
X2772000D1*
X2825000Y3284000D1*
Y3637000D1*
X2940000Y3752000D1*
X3386000D1*
X3752000Y3386000D1*
Y2984300D1*
D16*
X3776000Y3108000D1*
Y1697000D1*
X3456000Y1377000D1*
X2035000D1*
X1966000Y1446000D1*
X1993000Y2785000D2*
D19*
Y2786000D1*
X1910000D1*
X1895000Y2771000D1*
X3704000Y2788000D2*
D17*
Y2683597D1*
X3622000Y2643763D1*
Y2503880D1*
X3704000Y2906000D2*
Y2788000D1*
X2831000Y2225000D2*
D14*
X3004240D1*
X3204240Y2425000D1*
D13*
X2994000D1*
X2831000D1*
X3704000Y2906000D2*
D17*
Y2936300D1*
X3752000Y2984300D1*
X3204240Y2425000D2*
X3243000D1*
X3457000Y2639000D1*
X3589803D1*
X3622000Y2643763D1*
X3704000Y2906000D2*
D13*
Y2788000D1*
Y2725763D1*
X3622000Y2643763D1*
X3617000Y2481000D2*
Y2638763D1*
X3622000Y2643763D1*
X2994000Y2425000D2*
X2962000Y2393000D1*
X2928000D1*
X2914000Y2379000D1*
X2835000D1*
X2831000Y2375000D1*
X1888000Y2766000D2*
D19*
X1874000D1*
X1887000Y2779000D1*
X1895000Y2771000D1*
X1942500Y3009000D2*
D13*
X1946000D1*
X2034000Y2921000D1*
X2062000D1*
X2084000Y2899000D1*
X2207000Y2925000D2*
Y2920000D1*
X2105000D1*
X2084000Y2899000D1*
X2207000Y2925000D2*
D15*
Y3009000D1*
X2137500D1*
X2207000Y2925000D2*
D20*
Y2791000D1*
D13*
X2170000D1*
X2185000Y2806000D1*
D16*
X1993000D1*
Y2785000D1*
X2196327Y1654327D2*
D13*
X2187327D1*
D16*
X2051000Y1518000D1*
Y1393000D1*
D13*
X2035000Y1377000D1*
X1927000Y3243000D2*
Y3198000D1*
X1940000Y3185000D1*
Y3141500D1*
X1942500Y3139000D1*
X2137500Y3074000D2*
D15*
X2233000D1*
X2271000Y3036000D1*
X2380000D1*
X1877000Y3105500D2*
D13*
Y3096000D1*
X1899000Y3074000D1*
X1942500D1*
X1802000Y3030000D2*
Y2993000D1*
X1789000Y2980000D1*
X1737000D1*
X1712000Y2955000D1*
X1791000Y3105500D2*
Y3041000D1*
X1802000Y3030000D1*
X1809000D1*
X1872000Y2967000D1*
Y2941000D1*
X1914000Y2899000D1*
X1659000Y2872000D2*
X1680000D1*
X1710000Y2902000D1*
Y2953000D1*
X1712000Y2955000D1*
D82*
X2421000Y2208000D3*
D83*
X2042000Y3019000D3*
Y3129000D3*
D82*
X1578000Y3769000D3*
X1767000D3*
X1704000D3*
X1641000D3*
X1890000Y3768000D3*
X2079000D3*
X2016000D3*
X1953000D3*
X2971000Y2311000D3*
X3461000Y2821000D3*
Y2881000D3*
Y2941000D3*
Y2761000D3*
X2713000Y3135000D3*
X2572000Y2782000D3*
X3200000Y1737000D3*
X3255000Y3276000D3*
X3326000Y3415000D3*
X3192000Y3276000D3*
X3326000Y3354000D3*
X3671000Y2354000D3*
X3650000Y3224000D3*
X3200000Y1797000D3*
X3252000Y1767000D3*
X2358000Y2471000D3*
X2433000D3*
X2508000D3*
X2433000Y2624000D3*
X2358000Y2575000D3*
X2508000Y2676000D3*
X1631000Y2325000D3*
X1768000Y2250000D3*
X2221000Y1514000D3*
X2167000Y1482000D3*
X2220000Y1454000D3*
X1714000Y3242000D3*
X1685000Y1352000D3*
X1745000D3*
X1805000D3*
X1865000D3*
X1606000Y1800000D3*
X1633000Y1732000D3*
X1462000Y1553000D3*
X1547000Y1572000D3*
X1466000Y1891000D3*
X1627000Y2107000D3*
X1604000Y2176000D3*
X1533000Y2328000D3*
X1458000Y2024000D3*
X1465000Y1965000D3*
X1901000Y1948000D3*
X2075000Y1667000D3*
X2331000Y1888000D3*
X1428000Y2294000D3*
X1368000Y2300000D3*
X2199000Y3768000D3*
X1424000Y3015000D3*
X2027000Y2248000D3*
X1711000Y3168000D3*
X2078000Y2728000D3*
X2341000Y2660000D3*
X2743000Y2672000D3*
X2655000Y2419000D3*
X2421000Y2148000D3*
Y2268000D3*
X3475000Y3515000D3*
X2421000Y2088000D3*
Y2030000D3*
X1900000Y2056000D3*
X1735000Y2830000D3*
X1419000Y3538000D3*
X3296000Y2939000D3*
Y2879000D3*
Y2817000D3*
X3460000Y3334000D3*
X1580000Y2776000D3*
X2461000Y2952000D3*
X1387000Y2412000D3*
X2162000Y2580000D3*
X2209000Y2449000D3*
X2120000Y2537000D3*
X1784000Y1954000D3*
X1841000Y2009000D3*
X1962000Y1893000D3*
X2020000Y1945000D3*
X1902000Y1850000D3*
X1960000Y2002000D3*
X1840000Y1903000D3*
X1575000Y1471000D3*
X1873000Y2500000D3*
X2957000Y2829000D3*
X2963000Y2688000D3*
X3064000Y2758000D3*
X2947000Y2574000D3*
X3058000Y2615000D3*
X3069000Y2512000D3*
X2388000Y3768000D3*
X2325000D3*
X2262000D3*
X2509000D3*
X2698000D3*
X2635000D3*
X2572000D3*
X1367000Y3250000D3*
D84*
X3294000Y2095000D3*
X3279697Y2488333D2*
D22*
X3340920D1*
X3204093Y2478667D2*
X3336583D1*
X3128467Y2469000D2*
X3332230D1*
X3052843Y2459333D2*
X3327893D1*
X2977237Y2449667D2*
X3323537D1*
X2901610Y2440000D2*
X3319200D1*
X2875010Y2430333D2*
X3314847D1*
X2875010Y2420667D2*
X3310490D1*
X2875010Y2411000D2*
X3306153D1*
X2875010Y2401333D2*
X3301800D1*
X2875010Y2391667D2*
X3297463D1*
X2875010Y2382000D2*
X3293107D1*
X2875010Y2372333D2*
X3265120D1*
X3345780Y2496910D2*
X2873993Y2436597D1*
X2874000Y2364020D1*
X3209640Y2364000D1*
X3270047Y2372913D1*
X3292453Y2378290D1*
X3345783Y2496917D1*
X3162993Y1815333D2*
X3276990D1*
X3162993Y1805667D2*
X3276990D1*
X3162780Y1796000D2*
X3276990D1*
X3162563Y1786333D2*
X3276990D1*
X3162350Y1776667D2*
X3276990D1*
X3162117Y1767000D2*
X3276990D1*
X3161900Y1757333D2*
X3276990D1*
X3161687Y1747667D2*
X3276990D1*
X3161470Y1738000D2*
X3276990D1*
X3161257Y1728333D2*
X3276990D1*
X3161040Y1718667D2*
X3276990D1*
X3162000Y1824980D2*
X3161887Y1800890D1*
X3159920Y1716107D1*
X3158993Y1711013D1*
X3277980Y1711000D1*
X3278000Y1825003D1*
X3162003Y1825000D1*
X1516713Y3788333D2*
X2850320D1*
X3475677D2*
X3603287D1*
X1522473Y3778667D2*
X2840650D1*
X3485347D2*
X3597527D1*
X1527397Y3769000D2*
X2830983D1*
X3495013D2*
X3592603D1*
X1532320Y3759333D2*
X2821313D1*
X3504680D2*
X3587680D1*
X1536890Y3749667D2*
X2811647D1*
X3514350D2*
X3583110D1*
X1539097Y3740000D2*
X2801980D1*
X3524017D2*
X3580903D1*
X1540620Y3730333D2*
X2792310D1*
X3533687D2*
X3579380D1*
X1542143Y3720667D2*
X2782643D1*
X3543353D2*
X3577857D1*
X1543667Y3711000D2*
X2772973D1*
X3553020D2*
X3576333D1*
X1543707Y3701333D2*
X2763327D1*
X3562690D2*
X3576293D1*
X1542200Y3691667D2*
X2754537D1*
X3572357D2*
X3577800D1*
X1540677Y3682000D2*
X2747917D1*
X1539133Y3672333D2*
X2742973D1*
X1537007Y3662667D2*
X2739400D1*
X1532493Y3653000D2*
X2737057D1*
X1527573Y3643333D2*
X2735827D1*
X1522650Y3633667D2*
X2735593D1*
X1516987Y3624000D2*
X2735593D1*
X1507747Y3614333D2*
X2735593D1*
X1498080Y3604667D2*
X2735593D1*
X3093900D2*
X3140103D1*
X1487983Y3595000D2*
X2735593D1*
X3093900D2*
X3140103D1*
X1470443Y3585333D2*
X2735593D1*
X2954800D2*
X3140103D1*
X3413060D2*
X3426647D1*
X3780443D2*
X3795903D1*
X1342827Y3575667D2*
X1358853D1*
X1451147D2*
X2735593D1*
X3093900D2*
X3140103D1*
X3403393D2*
X3436313D1*
X3761147D2*
X3795903D1*
X1342807Y3566000D2*
X2735593D1*
X3093900D2*
X3140103D1*
X3393723D2*
X3445983D1*
X3698020D2*
X3795903D1*
X1342807Y3556333D2*
X2735593D1*
X3093900D2*
X3140103D1*
X3402320D2*
X3455650D1*
X3707690D2*
X3795903D1*
X1342787Y3546667D2*
X2735593D1*
X3093900D2*
X3140103D1*
X3411987D2*
X3465320D1*
X3717357D2*
X3795903D1*
X1342787Y3537000D2*
X2735593D1*
X3093900D2*
X3140103D1*
X3421653D2*
X3474987D1*
X3727027D2*
X3795883D1*
X1342787Y3527333D2*
X2735593D1*
X3093900D2*
X3140103D1*
X3431323D2*
X3484653D1*
X3736673D2*
X3795883D1*
X1342767Y3517667D2*
X2735593D1*
X3093900D2*
X3259673D1*
X3440990D2*
X3494323D1*
X3746343D2*
X3795883D1*
X1342767Y3508000D2*
X2735593D1*
X3093900D2*
X3269343D1*
X3450657D2*
X3503990D1*
X3756010D2*
X3795883D1*
X1342747Y3498333D2*
X2735593D1*
X3093900D2*
X3279010D1*
X3765677D2*
X3795883D1*
X1342747Y3488667D2*
X1499597D1*
X3137397D2*
X3288677D1*
X3775347D2*
X3795867D1*
X1342747Y3479000D2*
X1499597D1*
X3137397D2*
X3298347D1*
X3785013D2*
X3795867D1*
X1342730Y3469333D2*
X1499597D1*
X3137397D2*
X3308013D1*
X1342730Y3459667D2*
X1499597D1*
X3137397D2*
X3317680D1*
X1342710Y3450000D2*
X1499597D1*
X3137397D2*
X3327330D1*
X1342710Y3440333D2*
X1499597D1*
X3137397D2*
X3336997D1*
X1342710Y3430667D2*
X1499597D1*
X3137397D2*
X3346667D1*
X1342690Y3421000D2*
X1499597D1*
X3137397D2*
X3356333D1*
X1342690Y3411333D2*
X1499597D1*
X3137397D2*
X3366003D1*
X1342670Y3401667D2*
X1499597D1*
X3137397D2*
X3375670D1*
X1342670Y3392000D2*
X1499597D1*
X3137397D2*
X3385767D1*
X1342670Y3382333D2*
X1499597D1*
X3137397D2*
X3401960D1*
X1342650Y3372667D2*
X1499597D1*
X3137397D2*
X3527680D1*
X1342650Y3363000D2*
X1371607D1*
X3137397D2*
X3537330D1*
X1342630Y3353333D2*
X1371607D1*
X3137397D2*
X3546997D1*
X1342630Y3343667D2*
X1371607D1*
X3137397D2*
X3556667D1*
X1342630Y3334000D2*
X1371607D1*
X3137397D2*
X3566333D1*
X1342610Y3324333D2*
X1371607D1*
X3137397D2*
X3576003D1*
X1342610Y3314667D2*
X1371607D1*
X3137397D2*
X3585593D1*
X1342593Y3305000D2*
X1371607D1*
X3137397D2*
X3585593D1*
X1342593Y3295333D2*
X1371607D1*
X3137397D2*
X3585593D1*
X1342593Y3285667D2*
X1371607D1*
X3162903D2*
X3585593D1*
X1342573Y3276000D2*
X1371607D1*
X3162903D2*
X3585593D1*
X1342573Y3266333D2*
X1371607D1*
X3162903D2*
X3585593D1*
X1342553Y3256667D2*
X1371607D1*
X1684407D2*
X1842603D1*
X3162903D2*
X3585593D1*
X1684407Y3247000D2*
X1842603D1*
X3162903D2*
X3584577D1*
X1684407Y3237333D2*
X1842603D1*
X3162903D2*
X3581920D1*
X1745443Y3227667D2*
X1842603D1*
X3162903D2*
X3580690D1*
X1758667Y3218000D2*
X1761723D1*
X1820267D2*
X1842603D1*
X3162903D2*
X3453600D1*
X3162903Y3208333D2*
X3453600D1*
X3162903Y3198667D2*
X3453600D1*
X2856010Y3189000D2*
X2863200D1*
X3162903D2*
X3453600D1*
X3162903Y3179333D2*
X3453600D1*
X3008803Y3169667D2*
X3453600D1*
X3008803Y3160000D2*
X3453600D1*
X2289897Y3150333D2*
X2480593D1*
X3008803D2*
X3453600D1*
X3632397D2*
X3662603D1*
X2261400Y3140667D2*
X2480593D1*
X2659407D2*
X2749107D1*
X3008803D2*
X3453600D1*
X3632397D2*
X3662603D1*
X2260793Y3131000D2*
X2480593D1*
X2659407D2*
X2749107D1*
X3008803D2*
X3453600D1*
X3632397D2*
X3662603D1*
X2258723Y3121333D2*
X2480593D1*
X2659407D2*
X2749107D1*
X3008803D2*
X3453600D1*
X3632397D2*
X3662603D1*
X2659407Y3111667D2*
X2749107D1*
X3008803D2*
X3453600D1*
X3635777D2*
X3662603D1*
X2659407Y3102000D2*
X2749107D1*
X3008803D2*
X3453600D1*
X2659407Y3092333D2*
X2749107D1*
X2659407Y3082667D2*
X2749107D1*
X2659407Y3073000D2*
X2749107D1*
X2659407Y3063333D2*
X2749107D1*
X2659407Y3053667D2*
X2749107D1*
X2659407Y3044000D2*
X2749107D1*
X2659407Y3034333D2*
X2749107D1*
X2659407Y3024667D2*
X2749107D1*
X2659407Y3015000D2*
X2749107D1*
X2659407Y3005333D2*
X2749107D1*
X2659407Y2995667D2*
X2749107D1*
X3035110D2*
X3458600D1*
X1486947Y2986000D2*
X1495593D1*
X2659407D2*
X2749107D1*
X3025443D2*
X3458600D1*
X1481420Y2976333D2*
X1495593D1*
X3015777D2*
X3458600D1*
X1473393Y2966667D2*
X1495593D1*
X3006107D2*
X3458600D1*
X1470893Y2957000D2*
X1495593D1*
X2293900D2*
X2471980D1*
X2996440D2*
X3458600D1*
X1470893Y2947333D2*
X1495593D1*
X2293900D2*
X2462310D1*
X2986790D2*
X3615300D1*
X1470893Y2937667D2*
X1495593D1*
X1804663D2*
X1819597D1*
X2293900D2*
X2452643D1*
X2976810D2*
X3614617D1*
X1470893Y2928000D2*
X1495593D1*
X1786400D2*
X1819597D1*
X2293900D2*
X2442973D1*
X2957553D2*
X3614597D1*
X1470893Y2918333D2*
X1495593D1*
X1786400D2*
X1819597D1*
X2293900D2*
X2433327D1*
X2912903D2*
X3614597D1*
X1470893Y2908667D2*
X1495593D1*
X1786400D2*
X1819597D1*
X2293900D2*
X2423657D1*
X2912903D2*
X3614597D1*
X1470893Y2899000D2*
X1584597D1*
X1786400D2*
X1819597D1*
X2293900D2*
X2413990D1*
X2912903D2*
X3614597D1*
X1470893Y2889333D2*
X1584597D1*
X1786400D2*
X1819597D1*
X2912903D2*
X2923777D1*
X2990230D2*
X3614597D1*
X1470893Y2879667D2*
X1584597D1*
X1786400D2*
X1819597D1*
X3003960D2*
X3614597D1*
X1470893Y2870000D2*
X1584597D1*
X1742357D2*
X1819597D1*
X3012747D2*
X3614597D1*
X1470893Y2860333D2*
X1584597D1*
X1733393D2*
X1819597D1*
X3018803D2*
X3614597D1*
X1470893Y2850667D2*
X1584597D1*
X1733393D2*
X1819597D1*
X2617690D2*
X2625593D1*
X3022883D2*
X3614597D1*
X1482397Y2841000D2*
X1584597D1*
X1733393D2*
X1819597D1*
X2608020D2*
X2625593D1*
X3025347D2*
X3614597D1*
X1482397Y2831333D2*
X1584597D1*
X1733393D2*
X1819597D1*
X2598353D2*
X2625593D1*
X3026360D2*
X3614597D1*
X1482397Y2821667D2*
X1584597D1*
X1733393D2*
X1819597D1*
X2588687D2*
X2625593D1*
X3026010D2*
X3037993D1*
X3089993D2*
X3614597D1*
X1482397Y2812000D2*
X1584597D1*
X1733393D2*
X1819597D1*
X2579017D2*
X2625593D1*
X3106987D2*
X3614597D1*
X1482397Y2802333D2*
X1825593D1*
X2569350D2*
X2667603D1*
X3117083D2*
X3614597D1*
X1482397Y2792667D2*
X1825593D1*
X2559680D2*
X2667603D1*
X3123960D2*
X3614597D1*
X1482397Y2783000D2*
X1825593D1*
X2550013D2*
X2667603D1*
X3128667D2*
X3614597D1*
X1482397Y2773333D2*
X1825163D1*
X2540347D2*
X2667603D1*
X3131653D2*
X3614597D1*
X1482397Y2763667D2*
X1824653D1*
X2986420D2*
X2994830D1*
X3133157D2*
X3614597D1*
X1482397Y2754000D2*
X1825593D1*
X2981967D2*
X2994713D1*
X3133277D2*
X3614597D1*
X1482397Y2744333D2*
X1825593D1*
X3132027D2*
X3614597D1*
X1482397Y2734667D2*
X1825593D1*
X3129290D2*
X3605827D1*
X1541907Y2725000D2*
X1688093D1*
X2166360D2*
X2176450D1*
X3124917D2*
X3435533D1*
X2176030Y2715333D2*
X2299790D1*
X3118470D2*
X3411413D1*
X2185697Y2705667D2*
X2289070D1*
X3109037D2*
X3397957D1*
X2195367Y2696000D2*
X2281843D1*
X3096790D2*
X3387973D1*
X2205033Y2686333D2*
X2276880D1*
X3096653D2*
X3378327D1*
X2214680Y2676667D2*
X2273657D1*
X2643687D2*
X2673757D1*
X3094780D2*
X3368657D1*
X2034407Y2667000D2*
X2046060D1*
X2224350D2*
X2271960D1*
X2653353D2*
X2673777D1*
X3103430D2*
X3358990D1*
X2034407Y2657333D2*
X2105320D1*
X2234017D2*
X2271647D1*
X3112730D2*
X3349323D1*
X2034407Y2647667D2*
X2114967D1*
X2243687D2*
X2272720D1*
X3119097D2*
X3339653D1*
X2034407Y2638000D2*
X2124633D1*
X2253353D2*
X2275240D1*
X3123413D2*
X3329987D1*
X2034407Y2628333D2*
X2134303D1*
X2263020D2*
X2279380D1*
X3126087D2*
X3320320D1*
X2034407Y2618667D2*
X2143970D1*
X2272690D2*
X2285493D1*
X3127300D2*
X3310650D1*
X2041010Y2609000D2*
X2153640D1*
X2282357D2*
X2294420D1*
X3127143D2*
X3300983D1*
X2050677Y2599333D2*
X2163307D1*
X3125580D2*
X3291313D1*
X1898120Y2589667D2*
X1905593D1*
X2060347D2*
X2172973D1*
X3122533D2*
X3281647D1*
X1888450Y2580000D2*
X1905593D1*
X2070013D2*
X2182643D1*
X3117767D2*
X3271980D1*
X1878783Y2570333D2*
X1905593D1*
X2079680D2*
X2192310D1*
X3110793D2*
X3262310D1*
X2089350Y2560667D2*
X2201980D1*
X3118060D2*
X3252643D1*
X2099017Y2551000D2*
X2211647D1*
X3126187D2*
X3242973D1*
X2108627Y2541333D2*
X2221313D1*
X3131790D2*
X3233327D1*
X2115073Y2531667D2*
X2224207D1*
X3135503D2*
X3223657D1*
X2118100Y2522000D2*
X2224207D1*
X3137670D2*
X3198793D1*
X3466010D2*
X3477603D1*
X2118550Y2512333D2*
X2224207D1*
X3456343D2*
X3477603D1*
X2116480Y2502667D2*
X2224207D1*
X3446673D2*
X3477603D1*
X2111440Y2493000D2*
X2224207D1*
X3437027D2*
X3477603D1*
X2102473Y2483333D2*
X2224207D1*
X3427357D2*
X3477603D1*
X2092807Y2473667D2*
X2224207D1*
X3417690D2*
X3477603D1*
X2083140Y2464000D2*
X2224207D1*
X3408020D2*
X3477603D1*
X2073470Y2454333D2*
X2224207D1*
X2575347D2*
X2579223D1*
X3398353D2*
X3477603D1*
X2068550Y2444667D2*
X2224207D1*
X3388687D2*
X3477603D1*
X2062827Y2435000D2*
X2220650D1*
X3379017D2*
X3477603D1*
X1341890Y2425333D2*
X1503093D1*
X2054350D2*
X2210983D1*
X2724117D2*
X2749107D1*
X3369350D2*
X3477603D1*
X1341890Y2415667D2*
X1503093D1*
X2045383D2*
X2201313D1*
X2724310D2*
X2749107D1*
X3359680D2*
X3477603D1*
X1341890Y2406000D2*
X1503093D1*
X2040893D2*
X2191647D1*
X2723157D2*
X2749107D1*
X3353490D2*
X3625573D1*
X1341870Y2396333D2*
X1503093D1*
X2032437D2*
X2181980D1*
X2720540D2*
X2749107D1*
X3349133D2*
X3616277D1*
X1341870Y2386667D2*
X1496843D1*
X2022767D2*
X2172310D1*
X3344800D2*
X3609907D1*
X1341850Y2377000D2*
X1484283D1*
X1581733D2*
X1585580D1*
X2013100D2*
X2162643D1*
X3340443D2*
X3605593D1*
X1341850Y2367333D2*
X1354967D1*
X1381030D2*
X1476040D1*
X1858687D2*
X1865593D1*
X2003430D2*
X2152973D1*
X3336107D2*
X3602663D1*
X1453997Y2357667D2*
X1470377D1*
X1849017D2*
X1865593D1*
X1993763D2*
X2143307D1*
X3331753D2*
X3477603D1*
X1839350Y2348000D2*
X1865593D1*
X1983900D2*
X2133640D1*
X3325267D2*
X3477603D1*
X1829680Y2338333D2*
X1865593D1*
X1974407D2*
X2123970D1*
X2576460D2*
X2584107D1*
X3311223D2*
X3477603D1*
X1820033Y2328667D2*
X1861570D1*
X1974407D2*
X2114303D1*
X2459017D2*
X2584107D1*
X3268490D2*
X3476763D1*
X1810367Y2319000D2*
X1851900D1*
X1974407D2*
X2104633D1*
X2449350D2*
X2584107D1*
X2912903D2*
X3018190D1*
X3178293D2*
X3470610D1*
X1803020Y2309333D2*
X1842233D1*
X1974390D2*
X1995730D1*
X2058277D2*
X2094967D1*
X2439680D2*
X2584107D1*
X2912903D2*
X3008520D1*
X3168627D2*
X3466627D1*
X1816030Y2299667D2*
X1832563D1*
X1973277D2*
X1981177D1*
X2072827D2*
X2085320D1*
X2430033D2*
X2584107D1*
X2912903D2*
X2998853D1*
X3158960D2*
X3464343D1*
X2420367Y2290000D2*
X2584107D1*
X2912903D2*
X2989187D1*
X3149290D2*
X3463600D1*
X2410697Y2280333D2*
X2584107D1*
X3139623D2*
X3463600D1*
X1956617Y2270667D2*
X1961453D1*
X2401030D2*
X2584107D1*
X3129957D2*
X3463600D1*
X1946947Y2261000D2*
X1958853D1*
X2391360D2*
X2584107D1*
X3120287D2*
X3463600D1*
X1937280Y2251333D2*
X1956743D1*
X2381693D2*
X2584107D1*
X3110620D2*
X3441100D1*
X1927610Y2241667D2*
X1947077D1*
X2372027D2*
X2584107D1*
X3100970D2*
X3441100D1*
X1927827Y2232000D2*
X1937407D1*
X2362357D2*
X2584107D1*
X3091303D2*
X3441100D1*
X2352690Y2222333D2*
X2584107D1*
X3081633D2*
X3441100D1*
X1704017Y2212667D2*
X1709693D1*
X2343020D2*
X2584107D1*
X3071967D2*
X3441100D1*
X1694350Y2203000D2*
X1717310D1*
X2333353D2*
X2584107D1*
X3062300D2*
X3441100D1*
X1684370Y2193333D2*
X1722877D1*
X2323687D2*
X2584107D1*
X3052630D2*
X3441100D1*
X1672963Y2183667D2*
X1712253D1*
X2314017D2*
X2584107D1*
X3042867D2*
X3441100D1*
X1673373Y2174000D2*
X1702583D1*
X2304350D2*
X2584107D1*
X3028120D2*
X3441100D1*
X1672397Y2164333D2*
X1692917D1*
X2301790D2*
X2584107D1*
X2960110D2*
X3441100D1*
X1677063Y2154667D2*
X1684577D1*
X2301790D2*
X2584107D1*
X2969857D2*
X3441100D1*
X2301790Y2145000D2*
X2584107D1*
X2979527D2*
X3441100D1*
X2301790Y2135333D2*
X2584107D1*
X2989193D2*
X3441100D1*
X2301790Y2125667D2*
X2584107D1*
X2998860D2*
X3441100D1*
X2301790Y2116000D2*
X2584107D1*
X3008510D2*
X3441100D1*
X2301790Y2106333D2*
X2584107D1*
X3018177D2*
X3441100D1*
X2301790Y2096667D2*
X2584107D1*
X3027457D2*
X3441100D1*
X2301790Y2087000D2*
X2584107D1*
X3033707D2*
X3441100D1*
X2301790Y2077333D2*
X2584107D1*
X3037437D2*
X3441100D1*
X2301790Y2067667D2*
X2584107D1*
X3039193D2*
X3441100D1*
X2405403Y2058000D2*
X2584107D1*
X3039407D2*
X3441100D1*
X1460677Y2048333D2*
X1470200D1*
X2405403D2*
X2584107D1*
X3039407D2*
X3441100D1*
X1451557Y2038667D2*
X1470200D1*
X2405403D2*
X2584107D1*
X3039407D2*
X3441100D1*
X1438783Y2029000D2*
X1470200D1*
X2405403D2*
X2584107D1*
X3039407D2*
X3441100D1*
X1341577Y2019333D2*
X1364577D1*
X1417417D2*
X1470200D1*
X2405403D2*
X2584107D1*
X3039407D2*
X3441100D1*
X1341557Y2009667D2*
X1470200D1*
X2405403D2*
X2584107D1*
X3039407D2*
X3441100D1*
X1341557Y2000000D2*
X1470200D1*
X2405403D2*
X2584107D1*
X3039407D2*
X3441100D1*
X1341537Y1990333D2*
X1470200D1*
X2405403D2*
X2584107D1*
X3039407D2*
X3441100D1*
X1341537Y1980667D2*
X1470200D1*
X2405403D2*
X2584107D1*
X3039407D2*
X3441100D1*
X1341537Y1971000D2*
X1470200D1*
X2405403D2*
X2584107D1*
X3039407D2*
X3441100D1*
X1341517Y1961333D2*
X1470200D1*
X2405403D2*
X2584107D1*
X3039407D2*
X3441100D1*
X1341517Y1951667D2*
X1378640D1*
X1403353D2*
X1433403D1*
X2405403D2*
X2584107D1*
X3039407D2*
X3441100D1*
X1341497Y1942000D2*
X1348387D1*
X2405403D2*
X2584107D1*
X3039407D2*
X3441100D1*
X2405403Y1932333D2*
X2584107D1*
X3039407D2*
X3441100D1*
X2405403Y1922667D2*
X2584107D1*
X3162903D2*
X3441100D1*
X2395657Y1913000D2*
X2584107D1*
X2757903D2*
X2789577D1*
X3162903D2*
X3441100D1*
X2258880Y1903333D2*
X2263347D1*
X2398667D2*
X2584107D1*
X2757903D2*
X2776510D1*
X3162903D2*
X3441100D1*
X2400170Y1893667D2*
X2584107D1*
X2757903D2*
X2763447D1*
X3162903D2*
X3441100D1*
X2400287Y1884000D2*
X2584107D1*
X3162903D2*
X3441100D1*
X2258843Y1874333D2*
X2262980D1*
X2399017D2*
X2584107D1*
X2918860D2*
X2930593D1*
X3162903D2*
X3430163D1*
X2253120Y1864667D2*
X2265710D1*
X2396303D2*
X2584107D1*
X2905813D2*
X2930593D1*
X3162903D2*
X3414360D1*
X2243723Y1855000D2*
X2270083D1*
X2391907D2*
X2584107D1*
X2892747D2*
X2930593D1*
X3162903D2*
X3404343D1*
X2234057Y1845333D2*
X2276530D1*
X2385463D2*
X2584107D1*
X2879680D2*
X2930593D1*
X3162903D2*
X3394673D1*
X2223313Y1835667D2*
X2285963D1*
X2376050D2*
X2584107D1*
X3162903D2*
X3385007D1*
X2214740Y1826000D2*
X2301120D1*
X2360893D2*
X2584107D1*
X2853550D2*
X2863093D1*
X3162903D2*
X3375337D1*
X1466440Y1816333D2*
X1470210D1*
X2205073D2*
X2584107D1*
X2840503D2*
X2863093D1*
X3162903D2*
X3365670D1*
X1459290Y1806667D2*
X1470200D1*
X2197437D2*
X2584107D1*
X2827437D2*
X2863093D1*
X3039407D2*
X3356003D1*
X1462747Y1797000D2*
X1470200D1*
X2207083D2*
X2584107D1*
X2814370D2*
X2863093D1*
X3039407D2*
X3346333D1*
X2216753Y1787333D2*
X2584107D1*
X2796870D2*
X2863093D1*
X3039270D2*
X3336667D1*
X2226420Y1777667D2*
X2366607D1*
X2775403D2*
X2863093D1*
X3037710D2*
X3326997D1*
X2234507Y1768000D2*
X2366607D1*
X2775403D2*
X2863093D1*
X3036907D2*
X3317330D1*
X2238667Y1758333D2*
X2366607D1*
X2775403D2*
X2863093D1*
X3036907D2*
X3307663D1*
X2240033Y1748667D2*
X2366607D1*
X2775403D2*
X2863093D1*
X3036907D2*
X3298013D1*
X2238940Y1739000D2*
X2366607D1*
X2775403D2*
X2863093D1*
X3036907D2*
X3288347D1*
X2243803Y1729333D2*
X2366607D1*
X2775403D2*
X2863093D1*
X3036907D2*
X3278677D1*
X3459993D2*
X3523677D1*
X3704993D2*
X3711607D1*
X2253470Y1719667D2*
X2366607D1*
X2775403D2*
X2800593D1*
X3209407D2*
X3269010D1*
X3450327D2*
X3514010D1*
X3695327D2*
X3708013D1*
X2263140Y1710000D2*
X2366607D1*
X2775403D2*
X2800593D1*
X3209407D2*
X3261140D1*
X3440657D2*
X3504343D1*
X3685657D2*
X3698347D1*
X2272807Y1700333D2*
X2366607D1*
X2775403D2*
X2800593D1*
X3209407D2*
X3255883D1*
X3430990D2*
X3494673D1*
X3675990D2*
X3688677D1*
X2282473Y1690667D2*
X2366607D1*
X2775403D2*
X2800593D1*
X3209407D2*
X3228093D1*
X3666323D2*
X3679010D1*
X2292143Y1681000D2*
X2366607D1*
X2775403D2*
X2800593D1*
X3656653D2*
X3669343D1*
X2299760Y1671333D2*
X2366607D1*
X2775403D2*
X2800593D1*
X3646987D2*
X3659673D1*
X2303570Y1661667D2*
X2366607D1*
X2775403D2*
X2800593D1*
X3637337D2*
X3650007D1*
X1864350Y1652000D2*
X1873267D1*
X2304663D2*
X2366607D1*
X2775403D2*
X2800593D1*
X3627670D2*
X3640337D1*
X1854680Y1642333D2*
X1877563D1*
X2303277D2*
X2366607D1*
X2775403D2*
X2800593D1*
X3618003D2*
X3630670D1*
X1845033Y1632667D2*
X1883210D1*
X2299117D2*
X2366607D1*
X2775403D2*
X2800593D1*
X3608333D2*
X3621003D1*
X1835367Y1623000D2*
X1883210D1*
X2010367D2*
X2021627D1*
X2291010D2*
X2366607D1*
X2775403D2*
X2800593D1*
X3598667D2*
X3611333D1*
X1825697Y1613333D2*
X1859597D1*
X2002063D2*
X2031587D1*
X2281343D2*
X2366607D1*
X2775403D2*
X2800593D1*
X3588997D2*
X3601667D1*
X3783003D2*
X3795123D1*
X1816030Y1603667D2*
X1859597D1*
X1998393D2*
X2046003D1*
X2271673D2*
X2366607D1*
X2775403D2*
X2800593D1*
X3579330D2*
X3591997D1*
X3773333D2*
X3795123D1*
X1806360Y1594000D2*
X1859597D1*
X1998393D2*
X2036333D1*
X2262027D2*
X2460593D1*
X2619407D2*
X2800593D1*
X3569663D2*
X3582330D1*
X3763667D2*
X3795123D1*
X1796693Y1584333D2*
X1859597D1*
X1998393D2*
X2026667D1*
X2252357D2*
X2460593D1*
X2619407D2*
X2800593D1*
X3561907D2*
X3572663D1*
X3753997D2*
X3795103D1*
X1787027Y1574667D2*
X1859597D1*
X1998393D2*
X2016997D1*
X2242690D2*
X2460593D1*
X2619407D2*
X2800593D1*
X3744330D2*
X3795103D1*
X1777357Y1565000D2*
X1859597D1*
X1998980D2*
X2007330D1*
X2233020D2*
X2460593D1*
X2697200D2*
X2800593D1*
X3734663D2*
X3795103D1*
X1767690Y1555333D2*
X1859597D1*
X2223003D2*
X2460593D1*
X2713823D2*
X2800593D1*
X3209407D2*
X3228093D1*
X3724993D2*
X3795103D1*
X1341187Y1545667D2*
X1349030D1*
X1763393D2*
X1859597D1*
X2169330D2*
X2460593D1*
X3715327D2*
X3795103D1*
X1341187Y1536000D2*
X1381607D1*
X1763393D2*
X1859597D1*
X2159663D2*
X2460593D1*
X3705657D2*
X3795083D1*
X1341167Y1526333D2*
X1398013D1*
X1763393D2*
X1859597D1*
X2149993D2*
X2460593D1*
X3761147D2*
X3795083D1*
X1341167Y1516667D2*
X1403053D1*
X1763393D2*
X1859597D1*
X2140327D2*
X2460593D1*
X3780443D2*
X3795083D1*
X1341167Y1507000D2*
X1410377D1*
X1763393D2*
X1859597D1*
X2130657D2*
X2460593D1*
X1341147Y1497333D2*
X1421257D1*
X1502747D2*
X1510867D1*
X1763393D2*
X1859597D1*
X2120990D2*
X2460593D1*
X1341147Y1487667D2*
X1440747D1*
X1483257D2*
X1507663D1*
X1763393D2*
X1859597D1*
X2115403D2*
X2460593D1*
X1341127Y1478000D2*
X1505963D1*
X1763393D2*
X1859597D1*
X2115403D2*
X2460593D1*
X1341127Y1468333D2*
X1505650D1*
X1644350D2*
X1879107D1*
X2115403D2*
X2460593D1*
X1341127Y1458667D2*
X1506723D1*
X1643277D2*
X1879107D1*
X2115403D2*
X2460593D1*
X1341107Y1449000D2*
X1509243D1*
X1640757D2*
X1879107D1*
X2115403D2*
X2460593D1*
X1341107Y1439333D2*
X1513367D1*
X1636633D2*
X1879107D1*
X1341087Y1429667D2*
X1519497D1*
X1630503D2*
X1879107D1*
X1341087Y1420000D2*
X1528423D1*
X1621577D2*
X1879107D1*
X1341087Y1410333D2*
X1542407D1*
X1607593D2*
X1879107D1*
X1341070Y1400667D2*
X1879107D1*
X3570327D2*
X3576293D1*
X1341070Y1391000D2*
X1879107D1*
X3560657D2*
X3576333D1*
X1341050Y1381333D2*
X1879107D1*
X3550990D2*
X3577857D1*
X1341050Y1371667D2*
X1879107D1*
X3541323D2*
X3579380D1*
X1341050Y1362000D2*
X1879107D1*
X3531653D2*
X3580903D1*
X1341030Y1352333D2*
X1969010D1*
X3521987D2*
X3583110D1*
X1341030Y1342667D2*
X1978677D1*
X3512337D2*
X3587680D1*
X1341010Y1333000D2*
X1988347D1*
X3502670D2*
X3592603D1*
X1341010Y1323333D2*
X2000240D1*
X3490757D2*
X3597527D1*
X3459917Y1313667D2*
X3603287D1*
X1455903Y1804000D2*
X1459533Y1799833D1*
X1462580Y1795870D1*
X1465400Y1791743D1*
X1467980Y1787460D1*
X1471200Y1781103D1*
Y1822787D1*
X1468190Y1820920D1*
X1465633Y1816623D1*
X1462837Y1812480D1*
X1459807Y1808503D1*
X1455900Y1804010D1*
X1395810Y1535753D2*
X1389860Y1535607D1*
X1384863Y1535813D1*
X1379887Y1536300D1*
X1374947Y1537070D1*
X1370060Y1538117D1*
X1365237Y1539437D1*
X1360500Y1541030D1*
X1355857Y1542887D1*
X1351327Y1545003D1*
X1346927Y1547370D1*
X1340210Y1551690D1*
X1340003Y1315010D1*
X2024710Y1314440D1*
X2020200Y1315350D1*
X2015407Y1316703D1*
X2010737Y1318427D1*
X2006217Y1320510D1*
X2001873Y1322943D1*
X1997733Y1325707D1*
X1993823Y1328790D1*
X1986633Y1335703D1*
X1964743Y1357593D1*
X1880100Y1357600D1*
Y1471603D1*
X1860600Y1471600D1*
Y1618400D1*
X1884213D1*
X1884200Y1635293D1*
X1881980Y1637667D1*
X1878440Y1642543D1*
X1875703Y1647910D1*
X1873840Y1653643D1*
X1872897Y1659607D1*
X1871180Y1660177D1*
X1867010Y1655650D1*
X1762393Y1551037D1*
X1762400Y1472600D1*
X1643397D1*
X1643217Y1466003D1*
X1642670Y1461037D1*
X1641763Y1456120D1*
X1640497Y1451283D1*
X1638883Y1446553D1*
X1636927Y1441953D1*
X1634640Y1437507D1*
X1632033Y1433240D1*
X1629123Y1429177D1*
X1625923Y1425337D1*
X1622453Y1421737D1*
X1618730Y1418403D1*
X1614770Y1415350D1*
X1610600Y1412593D1*
X1606240Y1410150D1*
X1601713Y1408030D1*
X1597043Y1406250D1*
X1592253Y1404813D1*
X1587373Y1403730D1*
X1582427Y1403003D1*
X1577443Y1402643D1*
X1572443Y1402647D1*
X1567457Y1403017D1*
X1562513Y1403750D1*
X1557633Y1404840D1*
X1552850Y1406287D1*
X1548183Y1408077D1*
X1543657Y1410203D1*
X1539300Y1412653D1*
X1535137Y1415417D1*
X1531183Y1418477D1*
X1527463Y1421817D1*
X1524000Y1425420D1*
X1520807Y1429267D1*
X1517903Y1433337D1*
X1515303Y1437607D1*
X1513027Y1442057D1*
X1511077Y1446660D1*
X1509470Y1451393D1*
X1508213Y1456233D1*
X1507313Y1461150D1*
X1506773Y1466120D1*
X1506600Y1471117D1*
X1506790Y1476110D1*
X1507347Y1481077D1*
X1508263Y1485993D1*
X1509537Y1490827D1*
X1511160Y1495553D1*
X1513123Y1500150D1*
X1515417Y1504593D1*
X1518680Y1509760D1*
X1509453Y1503737D1*
X1505730Y1500403D1*
X1501770Y1497350D1*
X1497600Y1494593D1*
X1493240Y1492150D1*
X1488713Y1490030D1*
X1484043Y1488250D1*
X1479253Y1486813D1*
X1474373Y1485730D1*
X1469427Y1485003D1*
X1464443Y1484643D1*
X1459443Y1484647D1*
X1454457Y1485017D1*
X1449513Y1485750D1*
X1444633Y1486840D1*
X1439850Y1488287D1*
X1435183Y1490077D1*
X1430657Y1492203D1*
X1426300Y1494653D1*
X1422137Y1497417D1*
X1418183Y1500477D1*
X1414463Y1503817D1*
X1411000Y1507420D1*
X1407807Y1511267D1*
X1404903Y1515337D1*
X1402303Y1519607D1*
X1400027Y1524057D1*
X1398077Y1528660D1*
X1395867Y1535720D1*
X1471203Y2066900D2*
X1468190Y2060920D1*
X1465633Y2056623D1*
X1462837Y2052480D1*
X1459807Y2048503D1*
X1456560Y2044700D1*
X1453103Y2041090D1*
X1449447Y2037680D1*
X1445603Y2034480D1*
X1441587Y2031507D1*
X1437410Y2028763D1*
X1433080Y2026260D1*
X1428620Y2024003D1*
X1424037Y2022007D1*
X1419350Y2020270D1*
X1414570Y2018800D1*
X1409717Y2017603D1*
X1404803Y2016683D1*
X1399843Y2016043D1*
X1394857Y2015683D1*
X1389860Y2015607D1*
X1384863Y2015813D1*
X1379887Y2016300D1*
X1374947Y2017070D1*
X1370060Y2018117D1*
X1365237Y2019437D1*
X1360500Y2021030D1*
X1355857Y2022887D1*
X1351327Y2025003D1*
X1346927Y2027370D1*
X1340593Y2031423D1*
X1340503Y1936570D1*
X1346550Y1940413D1*
X1350940Y1942803D1*
X1355460Y1944940D1*
X1360093Y1946820D1*
X1364823Y1948437D1*
X1369640Y1949780D1*
X1374523Y1950850D1*
X1379457Y1951643D1*
X1384430Y1952157D1*
X1389423Y1952387D1*
X1394423Y1952333D1*
X1399413Y1952000D1*
X1404373Y1951383D1*
X1409293Y1950487D1*
X1414150Y1949313D1*
X1418937Y1947870D1*
X1424837Y1945640D1*
X1430497Y1949467D1*
X1434863Y1951903D1*
X1439393Y1954013D1*
X1444067Y1955787D1*
X1448857Y1957217D1*
X1453740Y1958293D1*
X1458687Y1959007D1*
X1463673Y1959360D1*
X1471183Y1959157D1*
X1471200Y2066810D1*
X2292900Y2957600D2*
Y2897403D1*
X2413380Y2897400D1*
X2473573Y2957590D1*
X2292913Y2957600D1*
X2288900Y3157607D2*
Y3143600D1*
X2260403D1*
X2260237Y3134810D1*
X2259743Y3130647D1*
X2258923Y3126533D1*
X2257780Y3122483D1*
X2260900Y3119530D1*
X2264387Y3117200D1*
X2267693Y3114593D1*
X2276600Y3114400D1*
X2481580D1*
X2481600Y3157613D1*
X2288890Y3157600D1*
X1843600Y3216183D2*
Y3257587D1*
X1683397Y3257600D1*
X1683400Y3230567D1*
X1689067Y3232787D1*
X1693857Y3234217D1*
X1698740Y3235293D1*
X1703687Y3236007D1*
X1708673Y3236360D1*
X1713673Y3236347D1*
X1718657Y3235970D1*
X1723600Y3235230D1*
X1728477Y3234130D1*
X1733260Y3232677D1*
X1737923Y3230877D1*
X1742443Y3228743D1*
X1746797Y3226287D1*
X1750957Y3223517D1*
X1754907Y3220450D1*
X1758957Y3216750D1*
X1764037Y3218340D1*
X1769987Y3219283D1*
X1783000Y3219400D1*
X1812013Y3219283D1*
X1817963Y3218340D1*
X1823697Y3216477D1*
X1829063Y3213740D1*
X1834013Y3210400D1*
X1838937Y3213740D1*
X1841577Y3215220D1*
X1875400Y3035920D2*
Y3026973D1*
X1881600Y3020757D1*
Y3032730D1*
X1878660Y3034083D1*
X1875580Y3035810D1*
X1820617Y2946600D2*
X1818857D1*
X1815333Y2943757D1*
X1812407Y2941800D1*
X1809340Y2940083D1*
X1806143Y2938610D1*
X1802843Y2937393D1*
X1799460Y2936437D1*
X1796007Y2935750D1*
X1792513Y2935337D1*
X1788987Y2935200D1*
X1785400Y2933400D1*
Y2871600D1*
X1742920D1*
X1732410Y2861053D1*
X1732400Y2803600D1*
X1585600D1*
Y2906587D1*
X1496600Y2906600D1*
Y2986970D1*
X1493043Y2987970D1*
X1489463Y2989290D1*
X1485927Y2985953D1*
X1483640Y2981507D1*
X1481033Y2977240D1*
X1478123Y2973177D1*
X1474923Y2969337D1*
X1471453Y2965737D1*
X1467730Y2962403D1*
X1462320Y2958393D1*
X1469900Y2958400D1*
Y2842403D1*
X1481400Y2842400D1*
Y2732420D1*
X1540900Y2732400D1*
Y2722380D1*
X1689080Y2722400D1*
X1689100Y2732400D1*
X1826620D1*
X1826600Y2756213D1*
X1825750Y2762203D1*
X1825600Y2766000D1*
X1825750Y2769797D1*
X1826600Y2777600D1*
Y2810587D1*
X1820600Y2810600D1*
Y2946597D1*
X1377600Y3365900D2*
X1500590D1*
X1500600Y3494400D1*
X2736597D1*
X2736617Y3638713D1*
X2736853Y3643707D1*
X2737373Y3648677D1*
X2738173Y3653613D1*
X2739253Y3658493D1*
X2740603Y3663307D1*
X2742227Y3668037D1*
X2744113Y3672667D1*
X2746260Y3677180D1*
X2748657Y3681567D1*
X2751297Y3685813D1*
X2754177Y3689900D1*
X2757280Y3693820D1*
X2762490Y3699510D1*
X2860397Y3797413D1*
X1506430Y3797997D1*
X1514797Y3789457D1*
X1518303Y3784633D1*
X1524300Y3773120D1*
X1535213Y3751443D1*
X1537057Y3745773D1*
X1539203Y3732970D1*
X1542883Y3708980D1*
Y3703020D1*
X1540967Y3690180D1*
X1537057Y3666227D1*
X1535213Y3660557D1*
X1529423Y3648937D1*
X1518303Y3627367D1*
X1514797Y3622543D1*
X1505700Y3613280D1*
X1488457Y3596203D1*
X1483633Y3592697D1*
X1472120Y3586700D1*
X1450443Y3575787D1*
X1444773Y3573943D1*
X1431970Y3571797D1*
X1407980Y3568117D1*
X1402020D1*
X1389180Y3570033D1*
X1365227Y3573943D1*
X1359557Y3575787D1*
X1347937Y3581577D1*
X1341827Y3584687D1*
X1341553Y3246727D1*
X1344993Y3247427D1*
X1351000Y3247900D1*
X1372583D1*
X1372600Y3365900D1*
X1377600D1*
X1504083Y2425600D2*
X1389100D1*
Y2434213D1*
X1340917Y2434200D1*
X1340843Y2362780D1*
X1346067Y2364787D1*
X1350857Y2366217D1*
X1355740Y2367293D1*
X1360687Y2368007D1*
X1365673Y2368360D1*
X1370673Y2368347D1*
X1375657Y2367970D1*
X1380600Y2367230D1*
X1385477Y2366130D1*
X1390260Y2364677D1*
X1394923Y2362877D1*
X1399443Y2360743D1*
X1404107Y2358080D1*
X1410857Y2360217D1*
X1415740Y2361293D1*
X1420687Y2362007D1*
X1425673Y2362360D1*
X1430673Y2362347D1*
X1435657Y2361970D1*
X1440600Y2361230D1*
X1445477Y2360130D1*
X1450260Y2358677D1*
X1454923Y2356877D1*
X1459443Y2354743D1*
X1463797Y2352287D1*
X1468033Y2349457D1*
X1471123Y2357150D1*
X1473417Y2361593D1*
X1476030Y2365853D1*
X1478947Y2369913D1*
X1482153Y2373750D1*
X1485630Y2377340D1*
X1489360Y2380670D1*
X1493323Y2383717D1*
X1497497Y2386467D1*
X1504110Y2389950D1*
X1504100Y2425620D1*
X1599280Y2385600D2*
X1569903D1*
X1572957Y2383517D1*
X1576907Y2380450D1*
X1580620Y2377103D1*
X1583443Y2374157D1*
X1587360Y2377670D1*
X1591323Y2380717D1*
X1595497Y2383467D1*
X1599333Y2385607D1*
X3459600Y3220900D2*
X3581650D1*
X3581790Y3229110D1*
X3582347Y3234077D1*
X3583263Y3238993D1*
X3584537Y3243827D1*
X3586597Y3249577D1*
X3586600Y3314723D1*
X3523727Y3377610D1*
X3427000Y3377600D1*
X3422027Y3377797D1*
X3417083Y3378380D1*
X3412200Y3379353D1*
X3407407Y3380703D1*
X3402737Y3382427D1*
X3398217Y3384510D1*
X3393873Y3386943D1*
X3389733Y3389707D1*
X3385823Y3392790D1*
X3378633Y3399703D1*
X3257750Y3520590D1*
X3141100Y3520593D1*
Y3611200D1*
X3092917D1*
X3092900Y3585600D1*
X2953860Y3585500D1*
X2953800Y3582380D1*
X3092900Y3582387D1*
Y3497407D1*
X3136400Y3497400D1*
Y3288397D1*
X3161900Y3288400D1*
Y3171600D1*
X3007820D1*
X3007800Y3097573D1*
X3013430Y3098803D1*
X3017203Y3099250D1*
X3026000Y3099400D1*
X3454613D1*
X3454600Y3220900D1*
X3459600D1*
X3631400Y3158183D2*
Y3115060D1*
X3643060Y3103390D1*
X3663603Y3103400D1*
X3663600Y3156977D1*
X3657427Y3156003D1*
X3652443Y3155643D1*
X3647443Y3155647D1*
X3642457Y3156017D1*
X3637513Y3156750D1*
X3631383Y3158220D1*
X2585107Y1983600D2*
X2585100Y2340143D1*
X2579007Y2338750D1*
X2575513Y2338337D1*
X2567000Y2338200D1*
X2467567D1*
X2300793Y2171437D1*
X2300800Y2058417D1*
X2404400Y2058400D1*
Y1921600D1*
X2390590D1*
X2393023Y1916840D1*
X2394963Y1912233D1*
X2396563Y1907497D1*
X2397810Y1902657D1*
X2398703Y1897737D1*
X2399233Y1892767D1*
X2399400Y1888000D1*
X2399217Y1883003D1*
X2398670Y1878037D1*
X2397763Y1873120D1*
X2396497Y1868283D1*
X2394883Y1863553D1*
X2392927Y1858953D1*
X2390640Y1854507D1*
X2388033Y1850240D1*
X2385123Y1846177D1*
X2381923Y1842337D1*
X2378453Y1838737D1*
X2374730Y1835403D1*
X2370770Y1832350D1*
X2366600Y1829593D1*
X2362240Y1827150D1*
X2357713Y1825030D1*
X2353043Y1823250D1*
X2348253Y1821813D1*
X2343373Y1820730D1*
X2338427Y1820003D1*
X2333443Y1819643D1*
X2328443Y1819647D1*
X2323457Y1820017D1*
X2318513Y1820750D1*
X2313633Y1821840D1*
X2308850Y1823287D1*
X2304183Y1825077D1*
X2299657Y1827203D1*
X2295300Y1829653D1*
X2291137Y1832417D1*
X2287183Y1835477D1*
X2283463Y1838817D1*
X2280000Y1842420D1*
X2276807Y1846267D1*
X2273903Y1850337D1*
X2271303Y1854607D1*
X2269027Y1859057D1*
X2267077Y1863660D1*
X2265470Y1868393D1*
X2264213Y1873233D1*
X2263313Y1878150D1*
X2262773Y1883120D1*
X2262600Y1888117D1*
X2262790Y1893110D1*
X2263347Y1898077D1*
X2264263Y1902993D1*
X2265537Y1907827D1*
X2267350Y1913003D1*
X2257833Y1903477D1*
X2259647Y1897843D1*
X2260587Y1891893D1*
Y1885867D1*
X2259647Y1879917D1*
X2257783Y1874183D1*
X2255047Y1868817D1*
X2251507Y1863940D1*
X2242390Y1854657D1*
X2226033Y1838467D1*
X2221147Y1834920D1*
X2219693Y1833460D1*
X2216150Y1828583D1*
X2207033Y1819300D1*
X2195417Y1807683D1*
X2227797Y1775297D1*
X2231710Y1770713D1*
X2234857Y1765577D1*
X2237163Y1760010D1*
X2238570Y1754150D1*
X2239043Y1748143D1*
X2238570Y1742137D1*
X2237160Y1736267D1*
X2238387Y1733747D1*
X2294470Y1677500D1*
X2298010Y1672623D1*
X2300747Y1667257D1*
X2302610Y1661523D1*
X2303553Y1655573D1*
Y1649547D1*
X2302610Y1643597D1*
X2300747Y1637863D1*
X2298010Y1632497D1*
X2294470Y1627620D1*
X2285353Y1618337D1*
X2223033Y1556183D1*
X2218157Y1552643D1*
X2212790Y1549907D1*
X2207057Y1548043D1*
X2201107Y1547100D1*
X2195080D1*
X2189130Y1548043D1*
X2183397Y1549907D1*
X2178020Y1552647D1*
X2175590Y1552927D1*
X2114393Y1491733D1*
X2114400Y1440403D1*
X2461583Y1440400D1*
X2461600Y1597597D1*
X2367600Y1597600D1*
Y1784400D1*
X2585120D1*
X2585100Y1983620D1*
X2717150Y2390400D2*
X2750080D1*
X2750100Y2430213D1*
X2722463Y2430200D1*
X2723233Y2423767D1*
X2723400Y2419000D1*
X2723217Y2414003D1*
X2722670Y2409037D1*
X2721763Y2404120D1*
X2720497Y2399283D1*
X2718883Y2394553D1*
X2717117Y2390403D1*
X2658417Y2978900D2*
X2732167D1*
X2738257Y2980213D1*
X2742613Y2980727D1*
X2747017Y2980900D1*
X2750100Y2984100D1*
Y3142597D1*
X2658387Y3142600D1*
X2658400Y2978917D1*
X2668617Y2807100D2*
X2626600D1*
Y2860597D1*
X2538830Y2772813D1*
X2668590Y2772800D1*
X2668600Y2807120D1*
X3442100Y1906417D2*
Y2251400D1*
X3464580D1*
X3464600Y2290000D1*
X3464797Y2294973D1*
X3465380Y2299917D1*
X3466350Y2304800D1*
X3467703Y2309593D1*
X3469427Y2314263D1*
X3471510Y2318783D1*
X3473943Y2323127D1*
X3476720Y2327280D1*
X3478600Y2332600D1*
Y2359400D1*
X3595730D1*
X3603977Y2367637D1*
X3605537Y2373827D1*
X3607160Y2378553D1*
X3609123Y2383150D1*
X3611417Y2387593D1*
X3614030Y2391853D1*
X3616947Y2395913D1*
X3620153Y2399750D1*
X3623630Y2403340D1*
X3627360Y2406670D1*
X3631323Y2409717D1*
X3635753Y2412607D1*
X3478600Y2412600D1*
Y2535587D1*
X3355340Y2412323D1*
X3330213Y2356563D1*
X3327063Y2351427D1*
X3323150Y2346843D1*
X3318570Y2342933D1*
X3313430Y2339783D1*
X3307863Y2337480D1*
X3295237Y2334327D1*
X3279567Y2330567D1*
X3266713Y2328550D1*
X3213013Y2320717D1*
X3200000Y2320600D1*
X3178887D1*
X3043767Y2185473D1*
X3040543Y2182493D1*
X3037097Y2179777D1*
X3033447Y2177337D1*
X3029617Y2175193D1*
X3025633Y2173353D1*
X3021513Y2171837D1*
X3017290Y2170643D1*
X3012983Y2169787D1*
X3008627Y2169273D1*
X2999240Y2169100D1*
X2953127D1*
X2957680Y2165607D1*
X2964297Y2159223D1*
X3022760Y2100760D1*
X3025607Y2097680D1*
X3028200Y2094387D1*
X3030530Y2090900D1*
X3032580Y2087243D1*
X3034337Y2083437D1*
X3035787Y2079500D1*
X3036923Y2075467D1*
X3037743Y2071353D1*
X3038237Y2067190D1*
X3038400Y2058000D1*
Y1928410D1*
X3161900Y1928400D1*
Y1811600D1*
X3038403D1*
X3038400Y1791000D1*
X3038237Y1786810D1*
X3037743Y1782647D1*
X3036923Y1778533D1*
X3035900Y1774400D1*
Y1720397D1*
X3208400Y1720400D1*
Y1690420D1*
X3229083Y1690400D1*
X3229100Y1694400D1*
X3254627D1*
X3256427Y1699263D1*
X3258510Y1703783D1*
X3260943Y1708127D1*
X3263707Y1712267D1*
X3266790Y1716177D1*
X3273703Y1723367D1*
X3411170Y1860830D1*
X3414823Y1864210D1*
X3418733Y1867293D1*
X3422873Y1870057D1*
X3427217Y1872490D1*
X3431737Y1874573D1*
X3436407Y1876297D1*
X3441220Y1877653D1*
X3442100Y1879600D1*
X3442120Y1906400D1*
X2756900Y1919090D2*
Y1891397D1*
X2761387Y1891400D1*
X2798810Y1919090D1*
X2756920Y1919100D1*
X2877400Y1844400D2*
X2931580D1*
X2931600Y1884497D1*
X2877413Y1844393D1*
X2864100Y1720393D2*
Y1834533D1*
X2810387Y1794797D1*
X2806900Y1792470D1*
X2803243Y1790420D1*
X2799437Y1788663D1*
X2795500Y1787213D1*
X2791467Y1786077D1*
X2787353Y1785257D1*
X2783190Y1784763D1*
X2774000Y1784600D1*
X2763393D1*
X2772600Y1784400D1*
X2774400D1*
Y1597600D1*
X2618397D1*
X2618400Y1569397D1*
X2673000Y1569400D1*
X2677973Y1569203D1*
X2682917Y1568620D1*
X2687800Y1567647D1*
X2692593Y1566297D1*
X2697263Y1564573D1*
X2701783Y1562490D1*
X2706127Y1560057D1*
X2710267Y1557293D1*
X2714190Y1554197D1*
X2719000Y1553400D1*
X2801597D1*
X2801600Y1720400D1*
X2864080D1*
X3424080Y1694400D2*
X3489743D1*
X3524930Y1729593D1*
X3459270Y1729600D1*
X3424057Y1694397D1*
X3560900Y1586257D2*
Y1571567D1*
X3712587Y1723250D1*
X3712600Y1729597D1*
X3704270Y1729600D1*
X3560900Y1586240D1*
X3229100Y1553400D2*
X3229000Y1563600D1*
X3208393D1*
X3208400Y1553387D1*
X3229097Y1553400D1*
X2846917Y3180900D2*
X2864183D1*
X2864200Y3198200D1*
X2846920Y3180903D1*
X2911900Y2319083D2*
Y2280920D1*
X2981097Y2280900D1*
X3020797Y2320613D1*
X2911917Y2320600D1*
X2911880Y2319100D1*
X2911900Y2926583D2*
Y2880410D1*
X2917323Y2884717D1*
X2921497Y2887467D1*
X2925863Y2889903D1*
X2930393Y2892013D1*
X2935067Y2893787D1*
X2939857Y2895217D1*
X2944740Y2896293D1*
X2949687Y2897007D1*
X2954673Y2897360D1*
X2959673Y2897347D1*
X2964657Y2896970D1*
X2969600Y2896230D1*
X2974477Y2895130D1*
X2979260Y2893677D1*
X2983923Y2891877D1*
X2988443Y2889743D1*
X2992797Y2887287D1*
X2996957Y2884517D1*
X3000907Y2881450D1*
X3004620Y2878103D1*
X3008077Y2874493D1*
X3011263Y2870640D1*
X3014160Y2866567D1*
X3016750Y2862293D1*
X3019023Y2857840D1*
X3020963Y2853233D1*
X3022563Y2848497D1*
X3023810Y2843657D1*
X3024703Y2838737D1*
X3025233Y2833767D1*
X3025400Y2829000D1*
X3025217Y2824003D1*
X3024670Y2819037D1*
X3023500Y2813120D1*
X3028497Y2816467D1*
X3032863Y2818903D1*
X3037393Y2821013D1*
X3042067Y2822787D1*
X3046857Y2824217D1*
X3051740Y2825293D1*
X3056687Y2826007D1*
X3061673Y2826360D1*
X3066673Y2826347D1*
X3071657Y2825970D1*
X3076600Y2825230D1*
X3081477Y2824130D1*
X3086260Y2822677D1*
X3090923Y2820877D1*
X3095443Y2818743D1*
X3099797Y2816287D1*
X3103957Y2813517D1*
X3107907Y2810450D1*
X3111620Y2807103D1*
X3115077Y2803493D1*
X3118263Y2799640D1*
X3121160Y2795567D1*
X3123750Y2791293D1*
X3126023Y2786840D1*
X3127963Y2782233D1*
X3129563Y2777497D1*
X3130810Y2772657D1*
X3131703Y2767737D1*
X3132233Y2762767D1*
X3132400Y2758000D1*
X3132217Y2753003D1*
X3131670Y2748037D1*
X3130763Y2743120D1*
X3129497Y2738283D1*
X3127883Y2733553D1*
X3125927Y2728953D1*
X3123640Y2724507D1*
X3121033Y2720240D1*
X3118123Y2716177D1*
X3114923Y2712337D1*
X3111453Y2708737D1*
X3107730Y2705403D1*
X3103770Y2702350D1*
X3099600Y2699593D1*
X3095803Y2697467D1*
X3095663Y2686487D1*
X3095250Y2682993D1*
X3094563Y2679540D1*
X3093603Y2676143D1*
X3093797Y2673287D1*
X3097957Y2670517D1*
X3101907Y2667450D1*
X3105620Y2664103D1*
X3109077Y2660493D1*
X3112263Y2656640D1*
X3115160Y2652567D1*
X3117750Y2648293D1*
X3120023Y2643840D1*
X3121963Y2639233D1*
X3123563Y2634497D1*
X3124810Y2629657D1*
X3125703Y2624737D1*
X3126233Y2619767D1*
X3126400Y2615000D1*
X3126217Y2610003D1*
X3125670Y2605037D1*
X3124763Y2600120D1*
X3123497Y2595283D1*
X3121883Y2590553D1*
X3119927Y2585953D1*
X3117640Y2581507D1*
X3115033Y2577240D1*
X3112123Y2573177D1*
X3107880Y2568253D1*
X3112907Y2564450D1*
X3116620Y2561103D1*
X3120077Y2557493D1*
X3123263Y2553640D1*
X3126160Y2549567D1*
X3128750Y2545293D1*
X3131023Y2540840D1*
X3132963Y2536233D1*
X3134563Y2531497D1*
X3135810Y2526657D1*
X3136703Y2521737D1*
X3137233Y2516767D1*
X3137330Y2514030D1*
X3217213Y2524227D1*
X3395713Y2702707D1*
X3399413Y2706070D1*
X3403297Y2709217D1*
X3407353Y2712140D1*
X3411567Y2714830D1*
X3415927Y2717277D1*
X3420417Y2719477D1*
X3425023Y2721413D1*
X3429733Y2723090D1*
X3434530Y2724497D1*
X3439400Y2725630D1*
X3444327Y2726487D1*
X3449293Y2727063D1*
X3457000Y2727400D1*
X3583310D1*
X3595627Y2729223D1*
X3615610Y2738937D1*
X3615617Y2938013D1*
X3615853Y2943007D1*
X3616373Y2947977D1*
X3617180Y2952930D1*
X3616400Y2956600D1*
X3459600D1*
Y3002597D1*
X3041043Y3002600D1*
X2979223Y2940777D1*
X2976433Y2938197D1*
X2973450Y2935843D1*
X2970290Y2933733D1*
X2966973Y2931873D1*
X2963523Y2930283D1*
X2959957Y2928970D1*
X2956300Y2927937D1*
X2952570Y2927197D1*
X2948797Y2926750D1*
X2940000Y2926600D1*
X2911893D1*
X3492410Y2549400D2*
X3533580D1*
X3529803Y2550600D1*
X3493613D1*
X3712607Y2412600D2*
X3706280D1*
X3710957Y2409517D1*
X3712607Y2408233D1*
X3712600Y2412607D1*
X3419860Y3593127D2*
X3392183Y3565450D1*
X3453257Y3504403D1*
X3508583Y3504400D1*
X3419867Y3593117D1*
X3403550Y3576820D2*
X3393533Y3566803D1*
X2042783Y2606233D2*
X2108470Y2540380D1*
X2112013Y2535503D1*
X2114747Y2530137D1*
X2116610Y2524403D1*
X2117553Y2518453D1*
Y2512427D1*
X2116610Y2506477D1*
X2114747Y2500743D1*
X2112013Y2495377D1*
X2108470Y2490500D1*
X2099353Y2481217D1*
X2070623Y2452373D1*
X2068900Y2447703D1*
X2066817Y2443183D1*
X2064383Y2438840D1*
X2061620Y2434700D1*
X2058537Y2430790D1*
X2051623Y2423600D1*
X2044647Y2416627D1*
X2043120Y2412160D1*
X2040383Y2406793D1*
X2036843Y2401917D1*
X2027727Y2392633D1*
X1983083Y2348157D1*
X1978207Y2344617D1*
X1975567Y2343137D1*
X1973400Y2337853D1*
Y2310577D1*
X1973237Y2306387D1*
X1972743Y2302223D1*
X1971923Y2298110D1*
X1970787Y2294077D1*
X1969337Y2290140D1*
X1967580Y2286333D1*
X1965530Y2282677D1*
X1963203Y2279190D1*
X1960607Y2275897D1*
X1954223Y2269280D1*
X1923993Y2239050D1*
X1925440Y2235920D1*
X1927303Y2230187D1*
X1928247Y2224223D1*
X1930010Y2223600D1*
X1958750Y2252340D1*
X1959347Y2258077D1*
X1960263Y2262993D1*
X1961537Y2267827D1*
X1963160Y2272553D1*
X1965123Y2277150D1*
X1967417Y2281593D1*
X1970030Y2285853D1*
X1972947Y2289913D1*
X1976153Y2293750D1*
X1979630Y2297340D1*
X1983360Y2300670D1*
X1987323Y2303717D1*
X1991497Y2306467D1*
X1995863Y2308903D1*
X2000393Y2311013D1*
X2005067Y2312787D1*
X2009857Y2314217D1*
X2014740Y2315293D1*
X2019687Y2316007D1*
X2024673Y2316360D1*
X2029673Y2316347D1*
X2034657Y2315970D1*
X2039600Y2315230D1*
X2044477Y2314130D1*
X2049260Y2312677D1*
X2053923Y2310877D1*
X2058443Y2308743D1*
X2062797Y2306287D1*
X2066957Y2303517D1*
X2070907Y2300450D1*
X2074620Y2297103D1*
X2079010Y2292363D1*
X2225193Y2438550D1*
X2225200Y2538457D1*
X2100310Y2663330D1*
X2095253Y2661813D1*
X2090373Y2660730D1*
X2085427Y2660003D1*
X2080443Y2659643D1*
X2075443Y2659647D1*
X2070457Y2660017D1*
X2065513Y2660750D1*
X2060633Y2661840D1*
X2055850Y2663287D1*
X2051183Y2665077D1*
X2046657Y2667203D1*
X2042300Y2669653D1*
X2038137Y2672417D1*
X2033413Y2676170D1*
X2033400Y2614560D1*
X2037033Y2611817D1*
X2042783Y2606233D1*
X2103607Y2485473D2*
X2073590Y2455457D1*
X1997400Y1609670D2*
Y1565723D1*
X1999293Y1563267D1*
X2002333Y1558633D1*
X2006183Y1562843D1*
X2047643Y1604303D1*
X2043657Y1606203D1*
X2039300Y1608653D1*
X2035137Y1611417D1*
X2031183Y1614477D1*
X2027463Y1617817D1*
X2024000Y1621420D1*
X2020807Y1625267D1*
X2017587Y1629853D1*
X2013900Y1626333D1*
X2009013Y1622787D1*
X2007560Y1621330D1*
X2004020Y1616453D1*
X1997403Y1609670D1*
X2033897Y2398807D2*
X2027213Y2392123D1*
X2007230Y2372140D2*
X1987213Y2352123D1*
X2285037Y1687097D2*
X2291720Y1680413D1*
X2289807Y1622793D2*
X2276457Y1609443D1*
X2248560Y1860830D2*
X2238543Y1850813D1*
X1958490Y2252077D2*
X1948507Y2242093D1*
X1822590Y2292843D2*
X1827473Y2296390D1*
X1832853Y2299130D1*
X1842967Y2309063D1*
X1866597Y2332693D1*
X1866600Y2376260D1*
X1800523Y2310167D1*
X1803797Y2308287D1*
X1807957Y2305517D1*
X1811907Y2302450D1*
X1815620Y2299103D1*
X1819077Y2295493D1*
X1821830Y2292167D1*
X1722867Y2191780D2*
X1724553Y2194307D1*
X1724183Y2197477D1*
X1720463Y2200817D1*
X1717000Y2204420D1*
X1713807Y2208267D1*
X1710903Y2212337D1*
X1707850Y2217493D1*
X1684097Y2193933D1*
X1681333Y2191757D1*
X1678407Y2189800D1*
X1675340Y2188083D1*
X1672130Y2186607D1*
X1671703Y2185737D1*
X1672233Y2180767D1*
X1672400Y2176000D1*
X1672217Y2171003D1*
X1671670Y2166037D1*
X1670430Y2159853D1*
X1674620Y2156103D1*
X1678077Y2152493D1*
X1679907Y2150280D1*
X1683547Y2153293D1*
X1686063Y2154973D1*
X1687517Y2156433D1*
X1691057Y2161310D1*
X1696640Y2167060D1*
X1716530Y2186783D1*
X1721417Y2190330D1*
X1710977Y2181393D2*
X1697660Y2168077D1*
X2575763Y2461870D2*
X2574763Y2456120D1*
X2573497Y2451283D1*
X2571647Y2445997D1*
X2579917Y2454073D1*
X2580180Y2457463D1*
X2575773Y2461870D1*
X2293303Y2597060D2*
X2294160Y2599553D1*
X2296123Y2604150D1*
X2297637Y2607083D1*
X2293463Y2610817D1*
X2290000Y2614420D1*
X2286807Y2618267D1*
X2283903Y2622337D1*
X2281303Y2626607D1*
X2279027Y2631057D1*
X2277077Y2635660D1*
X2275470Y2640393D1*
X2274213Y2645233D1*
X2273313Y2650150D1*
X2272773Y2655120D1*
X2272600Y2660117D1*
X2272790Y2665110D1*
X2273347Y2670077D1*
X2274263Y2674993D1*
X2275537Y2679827D1*
X2277160Y2684553D1*
X2279123Y2689150D1*
X2281417Y2693593D1*
X2284030Y2697853D1*
X2286947Y2701913D1*
X2290153Y2705750D1*
X2293630Y2709340D1*
X2297360Y2712670D1*
X2301323Y2715717D1*
X2305497Y2718467D1*
X2309333Y2720607D1*
X2205000Y2720600D1*
X2200003Y2720740D1*
X2195020Y2721163D1*
X2190073Y2721870D1*
X2185170Y2722853D1*
X2180333Y2724110D1*
X2175573Y2725643D1*
X2170907Y2727440D1*
X2166350Y2729497D1*
X2161920Y2731807D1*
X2157623Y2734367D1*
X2152283Y2738077D1*
X2293273Y2597087D1*
X1516010Y1511040D2*
X1512923Y1507337D1*
X1509453Y1503737D1*
X2675133Y2663800D2*
X2674773Y2667120D1*
X2674600Y2672117D1*
X2674790Y2677110D1*
X2675557Y2683210D1*
X2636177Y2683200D1*
X2655557Y2663803D1*
X2675107Y2663800D1*
X1875770Y2568340D2*
X1880657Y2567970D1*
X1885600Y2567230D1*
X1890477Y2566130D1*
X1895260Y2564677D1*
X1899923Y2562877D1*
X1906603Y2559523D1*
X1906600Y2599137D1*
X1875790Y2568343D1*
X2997467Y2773887D2*
X2992600Y2770593D1*
X2987053Y2767597D1*
X2984917Y2762660D1*
X2983200Y2759593D1*
X2981237Y2756657D1*
X2980477Y2754130D1*
X2985260Y2752677D1*
X2989923Y2750877D1*
X2996400Y2747640D1*
X2995773Y2753120D1*
X2995600Y2758117D1*
X2995790Y2763110D1*
X2996347Y2768077D1*
X2997497Y2773880D1*
X1533957Y3754163D2*
X1536247Y3748643D1*
X1537637Y3742847D1*
X1542523Y3712000D1*
X3786577Y3588970D2*
X3760443Y3575787D1*
X3754773Y3573943D1*
X3741970Y3571797D1*
X3717980Y3568117D1*
X3712020D1*
X3699180Y3570033D1*
X3691830Y3571197D1*
X3796857Y3466163D1*
X3796917Y3594937D1*
X3793633Y3592697D1*
X3786577Y3588970D1*
X3580197Y3682830D2*
X3577117Y3703020D1*
Y3708980D1*
X3579033Y3721820D1*
X3582943Y3745773D1*
X3584787Y3751443D1*
X3590577Y3763063D1*
X3601697Y3784633D1*
X3605203Y3789457D1*
X3612657Y3797077D1*
X3465883Y3797147D1*
X3580193Y3682823D1*
X3597970Y1324423D2*
X3584787Y1350557D1*
X3582943Y1356227D1*
X3580797Y1369030D1*
X3577117Y1393020D1*
Y1398980D1*
X3578760Y1410103D1*
X3500830Y1332170D1*
X3497177Y1328790D1*
X3493267Y1325707D1*
X3489127Y1322943D1*
X3484783Y1320510D1*
X3480263Y1318427D1*
X3475593Y1316703D1*
X3470800Y1315350D1*
X3465917Y1314380D1*
X3460973Y1313797D1*
X3451000Y1313600D1*
X3185003Y1313500D1*
X3604670Y1313160D1*
X3601697Y1317367D1*
X3597970Y1324423D1*
X3700897Y1532240D2*
X3712020Y1533883D1*
X3717980D1*
X3730820Y1531967D1*
X3754773Y1528057D1*
X3760443Y1526213D1*
X3772063Y1520423D1*
X3793643Y1509297D1*
X3796080Y1508003D1*
X3796083Y1627420D1*
X3700913Y1532250D1*
X2647840Y1441777D2*
X2643000Y1442600D1*
X2618410D1*
X2620000Y1440400D1*
X2649513D1*
X3712600Y2549403D2*
Y2589480D1*
X3710390Y2588423D1*
X3710400Y2549407D1*
D25*
X1391000Y1744000D3*
Y1624000D3*
Y1984000D3*
Y2104000D3*
Y1864000D3*
Y2224000D3*
X1993000Y2785000D3*
D26*
X2367000Y2925000D3*
X2207000D3*
X2043000Y3232000D3*
X2203000D3*
D27*
X2380000Y3036000D3*
Y3236000D3*
D28*
X1797000Y3243000D3*
X1927000D3*
D29*
X1802000Y3030000D3*
Y2900000D3*
D30*
X1914000Y2899000D3*
X2084000D3*
D29*
X1712000Y2955000D3*
Y3085000D3*
D31*
X2040000Y3074000D3*
D32*
X1942500Y3139000D3*
Y3074000D3*
Y3009000D3*
X2137500Y3139000D3*
Y3074000D3*
Y3009000D3*
D186*
X1834000Y3138000D3*
D189*
X1877000Y3105500D3*
D192*
Y3170500D3*
D195*
X1791000D3*
D198*
Y3105500D3*
D36*
X1659000Y2772000D3*
Y2872000D3*
D37*
X1461000Y3440000D3*
Y3280000D3*
D26*
X1544000Y2870000D3*
X1384000D3*
D38*
X1674000Y3376000D3*
Y3656000D3*
X1984000Y3376000D3*
Y3656000D3*
X2294000Y3376000D3*
Y3656000D3*
X2604000Y3376000D3*
Y3656000D3*
D39*
X1590000Y3175000D3*
D40*
Y2985000D3*
D201*
X1429000Y3100000D3*
D204*
Y3186500D3*
D207*
X1364000Y3190000D3*
D210*
Y3100000D3*
D186*
X1396500Y3145000D3*
D43*
X1052977Y2624000D3*
X1296227Y2479000D3*
D69*
X1795000Y2771000D3*
X1895000D3*
X1513000Y2769000D3*
X1413000D3*
D70*
X1465000Y2679000D3*
Y2629000D3*
Y2579000D3*
Y2529000D3*
Y2479000D3*
Y2429000D3*
X1765000D3*
Y2479000D3*
Y2529000D3*
Y2579000D3*
Y2629000D3*
Y2679000D3*
D71*
X1615000Y2554000D3*
D37*
X3543000Y3295000D3*
Y3135000D3*
D26*
X2511000Y2072000D3*
X2671000D3*
X2511000Y2302000D3*
X2671000D3*
D37*
X2715000Y3053000D3*
Y2893000D3*
D26*
X2511000Y1842000D3*
X2671000D3*
X3688000Y1933000D3*
X3528000D3*
X2511000Y1957000D3*
X2671000D3*
X3688000Y2048000D3*
X3528000D3*
X3688000Y2163000D3*
X3528000D3*
X3110000Y1756000D3*
X2950000D3*
X3544000Y2788000D3*
X3704000D3*
X3475000Y1606000D3*
X3315000D3*
X3688000Y1818000D3*
X3528000D3*
X3544000Y2906000D3*
X3704000D3*
X2511000Y2187000D3*
X2671000D3*
D72*
X2350000Y1515000D3*
D73*
X2540000D3*
D72*
X2940000Y1627000D3*
D73*
X3130000D3*
D72*
X2506000Y1691000D3*
D73*
X2696000D3*
D74*
X2831000Y1975000D3*
D75*
X3081000Y1870000D3*
D74*
X2831000Y3125000D3*
Y2025000D3*
Y2075000D3*
Y2125000D3*
Y2175000D3*
Y2225000D3*
Y2275000D3*
Y2325000D3*
Y2425000D3*
Y2375000D3*
Y2675000D3*
Y2575000D3*
Y2725000D3*
Y2625000D3*
Y2475000D3*
Y2525000D3*
Y2775000D3*
Y2825000D3*
Y2875000D3*
Y3075000D3*
Y2975000D3*
Y3025000D3*
Y2925000D3*
D75*
X3081000Y3230000D3*
D77*
X3617000Y2291000D3*
Y2481000D3*
D79*
X3012000Y3649000D3*
Y3518987D3*
X3222000Y3583993D3*
D213*
X3358000Y3628000D3*
X3428713Y3557287D3*
D69*
X3628000Y3030000D3*
X3528000D3*
D80*
X3033000Y3384000D3*
X3223000D3*
D69*
X2737000Y2783000D3*
X2637000D3*
D216*
X2123467Y2400533D3*
X2010327Y2513673D3*
D69*
X1829000Y1545000D3*
X1929000D3*
D26*
X1806000Y1446000D3*
X1966000D3*
D213*
X2032393Y2352607D3*
X1961680Y2423320D3*
D219*
X2309467Y1767467D3*
X2196327Y1654327D3*
D222*
X2225393Y1822393D3*
X2154680Y1751680D3*
D36*
X2331000Y2090000D3*
Y1990000D3*
X1689000Y1441000D3*
Y1541000D3*
D225*
X1943000Y1652000D3*
X1978353Y1687353D3*
X2013710Y1722710D3*
X2049063Y1758067D3*
X2084420Y1793420D3*
X2119777Y1828777D3*
X2155130Y1864130D3*
X2190487Y1899487D3*
D227*
X2190510Y1984317D3*
X2155153Y2019670D3*
X2119800Y2055027D3*
X2084443Y2090383D3*
X2049087Y2125737D3*
X2013733Y2161093D3*
X1978377Y2196447D3*
X1943023Y2231803D3*
D225*
X1858143Y2231830D3*
X1822787Y2196473D3*
X1787433Y2161120D3*
X1752077Y2125763D3*
X1716723Y2090407D3*
X1681367Y2055053D3*
X1646010Y2019697D3*
X1610657Y1984343D3*
D227*
X1610683Y1899463D3*
X1646037Y1864107D3*
X1681393Y1828753D3*
X1716747Y1793397D3*
X1752103Y1758040D3*
X1787460Y1722687D3*
X1822813Y1687330D3*
X1858170Y1651977D3*
D229*
X1900597Y1941890D3*
D17*
X1405000Y3706000D3*
X3715000D3*
Y1396000D3*
M02*
