G04 DipTrace 3.2.0.1*
G04 TopPaste.gbr*
%MOMM*%
G04 #@! TF.FileFunction,Paste,Top*
G04 #@! TF.Part,Single*
%AMOUTLINE2*
4,1,4,
-0.01767,-0.54801,
-0.54801,-0.01767,
0.01767,0.54801,
0.54801,0.01767,
-0.01767,-0.54801,
0*%
%AMOUTLINE5*
4,1,4,
-0.03537,-0.31821,
-0.31821,-0.03537,
0.03537,0.31821,
0.31821,0.03537,
-0.03537,-0.31821,
0*%
%AMOUTLINE8*
4,1,4,
-0.54801,0.01767,
-0.01767,0.54801,
0.54801,-0.01767,
0.01767,-0.54801,
-0.54801,0.01767,
0*%
%AMOUTLINE11*
4,1,4,
-0.31821,0.03537,
-0.03537,0.31821,
0.31821,-0.03537,
0.03537,-0.31821,
-0.31821,0.03537,
0*%
%AMOUTLINE13*
4,1,4,
-0.17678,0.10607,
-0.10607,0.17678,
0.17678,-0.10607,
0.10607,-0.17678,
-0.17678,0.10607,
0*%
%AMOUTLINE15*
4,1,4,
-0.10607,-0.17678,
-0.17678,-0.10607,
0.10607,0.17678,
0.17678,0.10607,
-0.10607,-0.17678,
0*%
%AMOUTLINE18*
4,1,4,
0.0,-2.29811,
-2.29811,0.0,
0.0,2.29811,
2.29811,0.0,
0.0,-2.29811,
0*%
%AMOUTLINE19*
4,1,5,
-0.12,-0.195,
-0.12,0.025,
0.06,0.205,
0.13,0.205,
0.13,-0.195,
-0.12,-0.195,
0*%
%AMOUTLINE20*
4,1,5,
-0.12,0.235,
-0.12,0.015,
0.06,-0.165,
0.13,-0.235,
0.13,0.235,
-0.12,0.235,
0*%
%AMOUTLINE21*
4,1,5,
0.12,0.195,
0.12,-0.025,
-0.06,-0.205,
-0.13,-0.205,
-0.13,0.195,
0.12,0.195,
0*%
%AMOUTLINE22*
4,1,5,
0.12,-0.195,
0.12,0.025,
-0.06,0.205,
-0.13,0.205,
-0.13,-0.195,
0.12,-0.195,
0*%
%AMOUTLINE25*
4,1,4,
-0.09857,0.0,
0.0,0.09856,
0.09857,0.0,
0.0,-0.09856,
-0.09857,0.0,
0*%
%ADD62R,2.0X0.6*%
%ADD81R,1.25X2.4*%
%ADD83R,0.55X0.1*%
%ADD85R,0.1X0.25*%
%ADD87R,1.5X0.9*%
%ADD89C,0.8*%
%ADD91R,0.8X0.9*%
%ADD93R,1.1X1.3*%
%ADD95R,0.65X0.3*%
%ADD97R,1.8X0.4*%
%ADD99R,0.65X0.2*%
%ADD101R,0.65X0.15*%
%ADD103R,0.9X0.6*%
%ADD105R,0.9X1.8*%
%ADD107R,0.6X0.9*%
%ADD109R,1.8X0.9*%
%ADD111R,2.5X1.4*%
%ADD113R,0.5X0.4*%
%ADD114R,0.4X0.5*%
%ADD116R,0.75X0.8*%
%ADD118R,0.8X0.75*%
%ADD173OUTLINE2*%
%ADD176OUTLINE5*%
%ADD179OUTLINE8*%
%ADD182OUTLINE11*%
%ADD184OUTLINE13*%
%ADD186OUTLINE15*%
%ADD189OUTLINE18*%
%ADD190OUTLINE19*%
%ADD191OUTLINE20*%
%ADD192OUTLINE21*%
%ADD193OUTLINE22*%
%ADD196OUTLINE25*%
%FSLAX35Y35*%
G04*
G71*
G90*
G75*
G01*
G04 TopPaste*
%LPD*%
D118*
X2197000Y3071000D3*
Y3231000D3*
X3543000Y3295000D3*
Y3135000D3*
D116*
X2511000Y2072000D3*
X2671000D3*
X2511000Y2302000D3*
X2671000D3*
D118*
X2715000Y3053000D3*
Y2893000D3*
D116*
X2511000Y1842000D3*
X2671000D3*
X3688000Y1933000D3*
X3528000D3*
X2511000Y1957000D3*
X2671000D3*
X3688000Y2048000D3*
X3528000D3*
X3688000Y2163000D3*
X3528000D3*
X3110000Y1756000D3*
X2950000D3*
X3544000Y2795000D3*
X3704000D3*
X3475000Y1606000D3*
X3315000D3*
X3688000Y1818000D3*
X3528000D3*
X3544000Y2906000D3*
X3704000D3*
D173*
X2123467Y2400533D3*
X2010327Y2513673D3*
D114*
X1829000Y1545000D3*
X1929000D3*
D116*
X1806000Y1446000D3*
X1966000D3*
D114*
X1730000Y2771000D3*
X1830000D3*
D118*
X1461000Y3440000D3*
Y3280000D3*
D116*
X1544000Y2918000D3*
X1384000D3*
D176*
X2032393Y2352607D3*
X1961680Y2423320D3*
D116*
X2511000Y2187000D3*
X2671000D3*
D179*
X2309467Y1767467D3*
X2196327Y1654327D3*
D182*
X2225393Y1822393D3*
X2154680Y1751680D3*
D113*
X2331000Y2090000D3*
Y1990000D3*
D111*
X1674000Y3376000D3*
Y3656000D3*
X1984000Y3376000D3*
Y3656000D3*
X2294000Y3376000D3*
Y3656000D3*
X2604000Y3376000D3*
Y3656000D3*
D116*
X2308000Y2932000D3*
X2148000D3*
D109*
X2350000Y1515000D3*
D107*
X2540000D3*
D109*
X2940000Y1627000D3*
D107*
X3130000D3*
D109*
X2506000Y1691000D3*
D107*
X2696000D3*
D105*
X1594000Y3232000D3*
D103*
Y3042000D3*
D101*
X2831000Y1975000D3*
D99*
X3081000Y1870000D3*
D101*
X2831000Y3125000D3*
Y2025000D3*
Y2075000D3*
Y2125000D3*
Y2175000D3*
Y2225000D3*
Y2275000D3*
Y2325000D3*
Y2425000D3*
Y2375000D3*
Y2675000D3*
Y2575000D3*
Y2725000D3*
Y2625000D3*
Y2475000D3*
Y2525000D3*
Y2775000D3*
Y2825000D3*
Y2875000D3*
Y3075000D3*
Y2975000D3*
Y3025000D3*
Y2925000D3*
D99*
X3081000Y3230000D3*
D97*
X3617000Y2291000D3*
Y2481000D3*
D62*
X2377000Y3242000D3*
Y3042000D3*
D95*
X3012000Y3649000D3*
Y3518987D3*
X3222000Y3583993D3*
D176*
X3358000Y3628000D3*
X3428713Y3557287D3*
D114*
X3628000Y3030000D3*
X3528000D3*
D93*
X3033000Y3384000D3*
X3223000D3*
D91*
X1797000Y3012000D3*
Y3182000D3*
D113*
X1910000Y3102000D3*
Y3202000D3*
D114*
X1513000Y2769000D3*
X1413000D3*
D113*
X1689000Y1441000D3*
Y1541000D3*
D114*
X2737000Y2783000D3*
X2637000D3*
D89*
X1391000Y1744000D3*
Y1624000D3*
Y1984000D3*
Y2104000D3*
Y1864000D3*
Y2224000D3*
X1986000Y2803000D3*
D184*
X1943000Y1652000D3*
X1978353Y1687353D3*
X2013710Y1722710D3*
X2049063Y1758067D3*
X2084420Y1793420D3*
X2119777Y1828777D3*
X2155130Y1864130D3*
X2190487Y1899487D3*
D186*
X2190510Y1984317D3*
X2155153Y2019670D3*
X2119800Y2055027D3*
X2084443Y2090383D3*
X2049087Y2125737D3*
X2013733Y2161093D3*
X1978377Y2196447D3*
X1943023Y2231803D3*
D184*
X1858143Y2231830D3*
X1822787Y2196473D3*
X1787433Y2161120D3*
X1752077Y2125763D3*
X1716723Y2090407D3*
X1681367Y2055053D3*
X1646010Y2019697D3*
X1610657Y1984343D3*
D186*
X1610683Y1899463D3*
X1646037Y1864107D3*
X1681393Y1828753D3*
X1716747Y1793397D3*
X1752103Y1758040D3*
X1787460Y1722687D3*
X1822813Y1687330D3*
X1858170Y1651977D3*
D189*
X1900597Y1941890D3*
D87*
X2048000Y3108000D3*
D85*
X2113000Y3205500D3*
X2048000D3*
X1983000D3*
X2113000Y3010500D3*
X2048000D3*
X1983000D3*
D190*
X1429000Y3100000D3*
D191*
Y3186500D3*
D192*
X1364000Y3190000D3*
D193*
Y3100000D3*
D196*
X1396497Y3145000D3*
D83*
X1465000Y2679000D3*
Y2629000D3*
Y2579000D3*
Y2529000D3*
Y2479000D3*
Y2429000D3*
X1765000D3*
Y2479000D3*
Y2529000D3*
Y2579000D3*
Y2629000D3*
Y2679000D3*
D81*
X1615000Y2554000D3*
M02*
