%FSLAX33Y33*%
%MOMM*%
%ADD95O,0.12X0.03*%
%ADD96C,0.45*%
%ADD97C,0.12*%
%ADD99R,0.13X0.13*%
G54D96*G01X0Y0D03*G54D97*G01X0Y0D02*X201Y290D01*G54D95*G01X201Y290D03*G54D99*G01X201Y355D02*X201Y14210D01*X30071Y14210*X30071Y-15660*X201Y-15660*X201Y-1805*X201Y-1740D02*G54D95*G01X201Y-1740D03*G54D97*G01X491Y290D01*G54D95*G01X491Y290D03*G54D99*G01X491Y355D02*X491Y13920D01*X29781Y13920*X29781Y-15370*X491Y-15370*X491Y-1805*X491Y-1740D02*G54D95*G01X491Y-1740D03*G54D97*G01X781Y290D01*G54D95*G01X781Y290D03*G54D99*G01X781Y355D02*X781Y13630D01*X29491Y13630*X29491Y-15080*X781Y-15080*X781Y-1805*X781Y-1740D02*G54D95*G01X781Y-1740D03*G54D97*G01X1071Y290D01*G54D95*G01X1071Y290D03*G54D99*G01X1071Y355D02*X1071Y13340D01*X29201Y13340*X29201Y-14790*X1071Y-14790*X1071Y-1805*X1071Y-1740D02*G54D95*G01X1071Y-1740D03*G54D97*G01X1361Y290D01*G54D95*G01X1361Y290D03*G54D99*G01X1361Y355D02*X1361Y13050D01*X28911Y13050*X28911Y-14500*X1361Y-14500*X1361Y-1805*X1361Y-1740D02*G54D95*G01X1361Y-1740D03*G54D97*G01X1651Y290D01*G54D95*G01X1651Y290D03*G54D99*G01X1651Y355D02*X1651Y12760D01*X28621Y12760*X28621Y-14210*X1651Y-14210*X1651Y-1805*X1651Y-1740D02*G54D95*G01X1651Y-1740D03*G54D97*G01X1941Y290D01*G54D95*G01X1941Y290D03*G54D99*G01X1941Y355D02*X1941Y12470D01*X28331Y12470*X28331Y-13920*X1941Y-13920*X1941Y-1805*X1941Y-1740D02*G54D95*G01X1941Y-1740D03*G54D97*G01X2231Y290D01*G54D95*G01X2231Y290D03*G54D99*G01X2231Y355D02*X2231Y12180D01*X28041Y12180*X28041Y-13630*X2231Y-13630*X2231Y-1805*X2231Y-1740D02*G54D95*G01X2231Y-1740D03*G54D97*G01X2432Y-1450D01**G54D96*G01X2432Y-1450D03*M00*
