Circuit: * Z:\home\john\projects\Screen\Hardware\Prototype3\Simulation\LTSpice\SuperCapacitorDischarge_7.5mF_25Ohm.asc

Direct Newton iteration for .op point succeeded.

Date: Sun Jun 02 00:08:31 2019
Total elapsed time: 4.767 seconds.

tnom = 27
temp = 27
method = modified trap
totiter = 600865
traniter = 600831
tranpoints = 300334
accept = 300249
rejected = 85
matrix size = 6
fillins = 1
solver = Normal
Matrix Compiler1: 146 bytes object code size  0.6/0.6/[0.5]
Matrix Compiler2: off  [0.6]/0.6/0.7

